(kicad_pcb (version 20171130) (host pcbnew 5.1.5+dfsg1-2build2)

  (general
    (thickness 1.6)
    (drawings 15)
    (tracks 296)
    (zones 0)
    (modules 32)
    (nets 47)
  )

  (page A4)
  (layers
    (0 F.Cu signal)
    (31 B.Cu signal)
    (32 B.Adhes user)
    (33 F.Adhes user)
    (34 B.Paste user)
    (35 F.Paste user)
    (36 B.SilkS user)
    (37 F.SilkS user)
    (38 B.Mask user)
    (39 F.Mask user)
    (40 Dwgs.User user)
    (41 Cmts.User user)
    (42 Eco1.User user)
    (43 Eco2.User user)
    (44 Edge.Cuts user)
    (45 Margin user)
    (46 B.CrtYd user)
    (47 F.CrtYd user)
    (48 B.Fab user)
    (49 F.Fab user)
  )

  (setup
    (last_trace_width 0.5)
    (trace_clearance 0.2)
    (zone_clearance 0.508)
    (zone_45_only no)
    (trace_min 0.2)
    (via_size 1.5)
    (via_drill 0.4)
    (via_min_size 0.4)
    (via_min_drill 0.3)
    (uvia_size 0.3)
    (uvia_drill 0.1)
    (uvias_allowed no)
    (uvia_min_size 0.2)
    (uvia_min_drill 0.1)
    (edge_width 0.15)
    (segment_width 0.2)
    (pcb_text_width 0.3)
    (pcb_text_size 1.5 1.5)
    (mod_edge_width 0.15)
    (mod_text_size 1 1)
    (mod_text_width 0.15)
    (pad_size 5.99948 5.99948)
    (pad_drill 2.49936)
    (pad_to_mask_clearance 0.2)
    (aux_axis_origin 0 0)
    (visible_elements FFFFFF7F)
    (pcbplotparams
      (layerselection 0x00030_80000001)
      (usegerberextensions false)
      (usegerberattributes false)
      (usegerberadvancedattributes false)
      (creategerberjobfile false)
      (excludeedgelayer true)
      (linewidth 0.100000)
      (plotframeref false)
      (viasonmask false)
      (mode 1)
      (useauxorigin false)
      (hpglpennumber 1)
      (hpglpenspeed 20)
      (hpglpendiameter 15.000000)
      (psnegative false)
      (psa4output false)
      (plotreference true)
      (plotvalue true)
      (plotinvisibletext false)
      (padsonsilk false)
      (subtractmaskfromsilk false)
      (outputformat 1)
      (mirror false)
      (drillshape 1)
      (scaleselection 1)
      (outputdirectory ""))
  )

  (net 0 "")
  (net 1 "Net-(C1-Pad1)")
  (net 2 "Net-(C1-Pad2)")
  (net 3 "Net-(C2-Pad1)")
  (net 4 +5V)
  (net 5 GND)
  (net 6 "Net-(D1-Pad2)")
  (net 7 "Net-(D2-Pad2)")
  (net 8 "Net-(D3-Pad2)")
  (net 9 "Net-(D4-Pad2)")
  (net 10 "Net-(DS1-Pad3)")
  (net 11 "Net-(DS1-Pad4)")
  (net 12 "Net-(K1-PadC1)")
  (net 13 "Net-(K1-PadO1)")
  (net 14 "Net-(K1-PadP1)")
  (net 15 "Net-(K2-PadC1)")
  (net 16 "Net-(K2-PadO1)")
  (net 17 "Net-(K3-Pad1)")
  (net 18 "Net-(K3-Pad2)")
  (net 19 "Net-(K3-Pad3)")
  (net 20 "Net-(K3-Pad4)")
  (net 21 "Net-(K3-Pad5)")
  (net 22 "Net-(K3-Pad6)")
  (net 23 "Net-(K3-Pad7)")
  (net 24 "Net-(P3-Pad2)")
  (net 25 "Net-(P4-Pad2)")
  (net 26 "Net-(Q1-Pad2)")
  (net 27 "Net-(Q2-Pad2)")
  (net 28 "Net-(R3-Pad1)")
  (net 29 "Net-(R4-Pad1)")
  (net 30 "Net-(R6-Pad1)")
  (net 31 "Net-(R7-Pad1)")
  (net 32 "Net-(U2-Pad1)")
  (net 33 "Net-(U2-Pad2)")
  (net 34 "Net-(U3-Pad1)")
  (net 35 "Net-(U3-Pad2)")
  (net 36 "Net-(U3-Pad3)")
  (net 37 "Net-(U3-Pad10)")
  (net 38 "Net-(U3-Pad13)")
  (net 39 "Net-(U3-Pad14)")
  (net 40 "Net-(U3-Pad15)")
  (net 41 "Net-(U3-Pad16)")
  (net 42 "Net-(U3-Pad17)")
  (net 43 "Net-(U3-Pad18)")
  (net 44 "Net-(U3-Pad21)")
  (net 45 "Net-(U3-Pad7)")
  (net 46 "Net-(U3-Pad11)")

  (net_class Default "This is the default net class."
    (clearance 0.2)
    (trace_width 0.5)
    (via_dia 1.5)
    (via_drill 0.4)
    (uvia_dia 0.3)
    (uvia_drill 0.1)
    (add_net +5V)
    (add_net GND)
    (add_net "Net-(D1-Pad2)")
    (add_net "Net-(D2-Pad2)")
    (add_net "Net-(D3-Pad2)")
    (add_net "Net-(D4-Pad2)")
    (add_net "Net-(DS1-Pad3)")
    (add_net "Net-(DS1-Pad4)")
    (add_net "Net-(K3-Pad1)")
    (add_net "Net-(K3-Pad2)")
    (add_net "Net-(K3-Pad3)")
    (add_net "Net-(K3-Pad4)")
    (add_net "Net-(K3-Pad5)")
    (add_net "Net-(K3-Pad6)")
    (add_net "Net-(K3-Pad7)")
    (add_net "Net-(P3-Pad2)")
    (add_net "Net-(P4-Pad2)")
    (add_net "Net-(Q1-Pad2)")
    (add_net "Net-(Q2-Pad2)")
    (add_net "Net-(R3-Pad1)")
    (add_net "Net-(R4-Pad1)")
    (add_net "Net-(R6-Pad1)")
    (add_net "Net-(R7-Pad1)")
    (add_net "Net-(U2-Pad1)")
    (add_net "Net-(U2-Pad2)")
    (add_net "Net-(U3-Pad1)")
    (add_net "Net-(U3-Pad10)")
    (add_net "Net-(U3-Pad11)")
    (add_net "Net-(U3-Pad13)")
    (add_net "Net-(U3-Pad14)")
    (add_net "Net-(U3-Pad15)")
    (add_net "Net-(U3-Pad16)")
    (add_net "Net-(U3-Pad17)")
    (add_net "Net-(U3-Pad18)")
    (add_net "Net-(U3-Pad2)")
    (add_net "Net-(U3-Pad21)")
    (add_net "Net-(U3-Pad3)")
    (add_net "Net-(U3-Pad7)")
  )

  (net_class AC ""
    (clearance 2.5)
    (trace_width 1)
    (via_dia 1.5)
    (via_drill 0.4)
    (uvia_dia 0.3)
    (uvia_drill 0.1)
    (add_net "Net-(C1-Pad1)")
    (add_net "Net-(C1-Pad2)")
    (add_net "Net-(C2-Pad1)")
    (add_net "Net-(K1-PadC1)")
    (add_net "Net-(K1-PadO1)")
    (add_net "Net-(K1-PadP1)")
    (add_net "Net-(K2-PadC1)")
    (add_net "Net-(K2-PadO1)")
  )

  (module Wire_Pads:SolderWirePad_single_2-5mmDrill (layer F.Cu) (tedit 5CFF9265) (tstamp 5D0E89B9)
    (at 209.296 55.372 90)
    (fp_text reference "" (at 0 -5.08 90) (layer F.SilkS)
      (effects (font (size 1 1) (thickness 0.15)))
    )
    (fp_text value "" (at 1.27 5.08 90) (layer F.Fab)
      (effects (font (size 1 1) (thickness 0.15)))
    )
    (pad "" thru_hole circle (at 0 0 90) (size 5.99948 5.99948) (drill 2.49936) (layers *.Cu *.Mask F.SilkS))
  )

  (module Wire_Pads:SolderWirePad_single_2-5mmDrill (layer F.Cu) (tedit 5CFF925F) (tstamp 5D0E89B1)
    (at 79.4385 55.4355 90)
    (fp_text reference "" (at 0 -5.08 90) (layer F.SilkS)
      (effects (font (size 1 1) (thickness 0.15)))
    )
    (fp_text value "" (at 1.27 5.08 90) (layer F.Fab)
      (effects (font (size 1 1) (thickness 0.15)))
    )
    (pad "" thru_hole circle (at 0 0 90) (size 5.99948 5.99948) (drill 2.49936) (layers *.Cu *.Mask F.SilkS))
  )

  (module Wire_Pads:SolderWirePad_single_2-5mmDrill (layer F.Cu) (tedit 5CFF9273) (tstamp 5D0E89A9)
    (at 79.502 121.412 90)
    (fp_text reference "" (at 0 -5.08 90) (layer F.SilkS)
      (effects (font (size 1 1) (thickness 0.15)))
    )
    (fp_text value "" (at 1.27 5.08 90) (layer F.Fab)
      (effects (font (size 1 1) (thickness 0.15)))
    )
    (pad "" thru_hole circle (at 0 0 90) (size 5.99948 5.99948) (drill 2.49936) (layers *.Cu *.Mask F.SilkS))
  )

  (module Capacitors_ThroughHole:C_Rect_L7_W2_P5 (layer F.Cu) (tedit 5CFEDB96) (tstamp 5CFECDBC)
    (at 191.7065 90.1065)
    (descr "Film Capacitor Length 7 x Width 2mm, Pitch 5mm")
    (tags Capacitor)
    (path /5CFABDA9)
    (fp_text reference C3 (at 2.5 -2.25) (layer F.SilkS)
      (effects (font (size 1 1) (thickness 0.15)))
    )
    (fp_text value 100nF (at 2.54 0) (layer F.Fab)
      (effects (font (size 1 1) (thickness 0.15)))
    )
    (fp_line (start -1.25 -1.25) (end 6.25 -1.25) (layer F.CrtYd) (width 0.05))
    (fp_line (start 6.25 -1.25) (end 6.25 1.25) (layer F.CrtYd) (width 0.05))
    (fp_line (start 6.25 1.25) (end -1.25 1.25) (layer F.CrtYd) (width 0.05))
    (fp_line (start -1.25 1.25) (end -1.25 -1.25) (layer F.CrtYd) (width 0.05))
    (fp_line (start -1 -1) (end 6 -1) (layer F.SilkS) (width 0.15))
    (fp_line (start 6 -1) (end 6 1) (layer F.SilkS) (width 0.15))
    (fp_line (start 6 1) (end -1 1) (layer F.SilkS) (width 0.15))
    (fp_line (start -1 1) (end -1 -1) (layer F.SilkS) (width 0.15))
    (pad 1 thru_hole rect (at 0 0) (size 1.3 1.3) (drill 0.8) (layers *.Cu *.Mask F.SilkS)
      (net 4 +5V))
    (pad 2 thru_hole circle (at 5 0) (size 1.3 1.3) (drill 0.8) (layers *.Cu *.Mask F.SilkS)
      (net 5 GND))
    (model Capacitors_ThroughHole.3dshapes/C_Rect_L7_W2_P5.wrl
      (offset (xyz 2.499994962453842 0 0))
      (scale (xyz 1 1 1))
      (rotate (xyz 0 0 0))
    )
  )

  (module Capacitors_ThroughHole:C_Rect_L7_W2_P5 (layer F.Cu) (tedit 5CFEDB9A) (tstamp 5CFECDC2)
    (at 199.3265 102.8065 270)
    (descr "Film Capacitor Length 7 x Width 2mm, Pitch 5mm")
    (tags Capacitor)
    (path /5CFA2A39)
    (fp_text reference C4 (at 2.5 -2.25 270) (layer F.SilkS)
      (effects (font (size 1 1) (thickness 0.15)))
    )
    (fp_text value 100nF (at 2.54 0 270) (layer F.Fab)
      (effects (font (size 1 1) (thickness 0.15)))
    )
    (fp_line (start -1.25 -1.25) (end 6.25 -1.25) (layer F.CrtYd) (width 0.05))
    (fp_line (start 6.25 -1.25) (end 6.25 1.25) (layer F.CrtYd) (width 0.05))
    (fp_line (start 6.25 1.25) (end -1.25 1.25) (layer F.CrtYd) (width 0.05))
    (fp_line (start -1.25 1.25) (end -1.25 -1.25) (layer F.CrtYd) (width 0.05))
    (fp_line (start -1 -1) (end 6 -1) (layer F.SilkS) (width 0.15))
    (fp_line (start 6 -1) (end 6 1) (layer F.SilkS) (width 0.15))
    (fp_line (start 6 1) (end -1 1) (layer F.SilkS) (width 0.15))
    (fp_line (start -1 1) (end -1 -1) (layer F.SilkS) (width 0.15))
    (pad 1 thru_hole rect (at 0 0 270) (size 1.3 1.3) (drill 0.8) (layers *.Cu *.Mask F.SilkS)
      (net 4 +5V))
    (pad 2 thru_hole circle (at 5 0 270) (size 1.3 1.3) (drill 0.8) (layers *.Cu *.Mask F.SilkS)
      (net 5 GND))
    (model Capacitors_ThroughHole.3dshapes/C_Rect_L7_W2_P5.wrl
      (offset (xyz 2.499994962453842 0 0))
      (scale (xyz 1 1 1))
      (rotate (xyz 0 0 0))
    )
  )

  (module Diodes_ThroughHole:Diode_DO-35_SOD27_Horizontal_RM10 (layer F.Cu) (tedit 5CFF88D6) (tstamp 5CFECDC8)
    (at 127.635 105.41)
    (descr "Diode, DO-35,  SOD27, Horizontal, RM 10mm")
    (tags "Diode, DO-35, SOD27, Horizontal, RM 10mm, 1N4148,")
    (path /5CFA52B1)
    (fp_text reference D1 (at 6.985 1.905) (layer F.SilkS)
      (effects (font (size 1 1) (thickness 0.15)))
    )
    (fp_text value 1N4148 (at 5.08 0) (layer F.Fab)
      (effects (font (size 1 1) (thickness 0.15)))
    )
    (fp_line (start 7.36652 -0.00254) (end 8.76352 -0.00254) (layer F.SilkS) (width 0.15))
    (fp_line (start 2.92152 -0.00254) (end 1.39752 -0.00254) (layer F.SilkS) (width 0.15))
    (fp_line (start 3.30252 -0.76454) (end 3.30252 0.75946) (layer F.SilkS) (width 0.15))
    (fp_line (start 3.04852 -0.76454) (end 3.04852 0.75946) (layer F.SilkS) (width 0.15))
    (fp_line (start 2.79452 -0.00254) (end 2.79452 0.75946) (layer F.SilkS) (width 0.15))
    (fp_line (start 2.79452 0.75946) (end 7.36652 0.75946) (layer F.SilkS) (width 0.15))
    (fp_line (start 7.36652 0.75946) (end 7.36652 -0.76454) (layer F.SilkS) (width 0.15))
    (fp_line (start 7.36652 -0.76454) (end 2.79452 -0.76454) (layer F.SilkS) (width 0.15))
    (fp_line (start 2.79452 -0.76454) (end 2.79452 -0.00254) (layer F.SilkS) (width 0.15))
    (pad 2 thru_hole circle (at 10.16052 -0.00254 180) (size 1.69926 1.69926) (drill 0.70104) (layers *.Cu *.Mask F.SilkS)
      (net 6 "Net-(D1-Pad2)"))
    (pad 1 thru_hole rect (at 0.00052 -0.00254 180) (size 1.69926 1.69926) (drill 0.70104) (layers *.Cu *.Mask F.SilkS)
      (net 4 +5V))
    (model Diodes_ThroughHole.3dshapes/Diode_DO-35_SOD27_Horizontal_RM10.wrl
      (offset (xyz 5.079999923706055 0 0))
      (scale (xyz 0.4 0.4 0.4))
      (rotate (xyz 0 0 180))
    )
  )

  (module Diodes_ThroughHole:Diode_DO-35_SOD27_Horizontal_RM10 (layer F.Cu) (tedit 5CFF88D1) (tstamp 5CFECDCE)
    (at 109.855 105.41)
    (descr "Diode, DO-35,  SOD27, Horizontal, RM 10mm")
    (tags "Diode, DO-35, SOD27, Horizontal, RM 10mm, 1N4148,")
    (path /5CFA53F9)
    (fp_text reference D2 (at 6.985 1.905) (layer F.SilkS)
      (effects (font (size 1 1) (thickness 0.15)))
    )
    (fp_text value 1N4148 (at 5.08 0) (layer F.Fab)
      (effects (font (size 1 1) (thickness 0.15)))
    )
    (fp_line (start 7.36652 -0.00254) (end 8.76352 -0.00254) (layer F.SilkS) (width 0.15))
    (fp_line (start 2.92152 -0.00254) (end 1.39752 -0.00254) (layer F.SilkS) (width 0.15))
    (fp_line (start 3.30252 -0.76454) (end 3.30252 0.75946) (layer F.SilkS) (width 0.15))
    (fp_line (start 3.04852 -0.76454) (end 3.04852 0.75946) (layer F.SilkS) (width 0.15))
    (fp_line (start 2.79452 -0.00254) (end 2.79452 0.75946) (layer F.SilkS) (width 0.15))
    (fp_line (start 2.79452 0.75946) (end 7.36652 0.75946) (layer F.SilkS) (width 0.15))
    (fp_line (start 7.36652 0.75946) (end 7.36652 -0.76454) (layer F.SilkS) (width 0.15))
    (fp_line (start 7.36652 -0.76454) (end 2.79452 -0.76454) (layer F.SilkS) (width 0.15))
    (fp_line (start 2.79452 -0.76454) (end 2.79452 -0.00254) (layer F.SilkS) (width 0.15))
    (pad 2 thru_hole circle (at 10.16052 -0.00254 180) (size 1.69926 1.69926) (drill 0.70104) (layers *.Cu *.Mask F.SilkS)
      (net 7 "Net-(D2-Pad2)"))
    (pad 1 thru_hole rect (at 0.00052 -0.00254 180) (size 1.69926 1.69926) (drill 0.70104) (layers *.Cu *.Mask F.SilkS)
      (net 4 +5V))
    (model Diodes_ThroughHole.3dshapes/Diode_DO-35_SOD27_Horizontal_RM10.wrl
      (offset (xyz 5.079999923706055 0 0))
      (scale (xyz 0.4 0.4 0.4))
      (rotate (xyz 0 0 180))
    )
  )

  (module LEDs:LED-3MM (layer F.Cu) (tedit 5CFFC4EE) (tstamp 5CFECDD4)
    (at 165.989 54.229)
    (descr "LED 3mm round vertical")
    (tags "LED  3mm round vertical")
    (path /5CFA4242)
    (fp_text reference D3 (at 1.91 3.06) (layer F.SilkS)
      (effects (font (size 1 1) (thickness 0.15)))
    )
    (fp_text value GREEN (at 1.016 -5.969) (layer F.Fab)
      (effects (font (size 1 1) (thickness 0.15)))
    )
    (fp_line (start -1.2 2.3) (end 3.8 2.3) (layer F.CrtYd) (width 0.05))
    (fp_line (start 3.8 2.3) (end 3.8 -2.2) (layer F.CrtYd) (width 0.05))
    (fp_line (start 3.8 -2.2) (end -1.2 -2.2) (layer F.CrtYd) (width 0.05))
    (fp_line (start -1.2 -2.2) (end -1.2 2.3) (layer F.CrtYd) (width 0.05))
    (fp_line (start -0.199 1.314) (end -0.199 1.114) (layer F.SilkS) (width 0.15))
    (fp_line (start -0.199 -1.28) (end -0.199 -1.1) (layer F.SilkS) (width 0.15))
    (fp_arc (start 1.301 0.034) (end -0.199 -1.286) (angle 108.5) (layer F.SilkS) (width 0.15))
    (fp_arc (start 1.301 0.034) (end 0.25 -1.1) (angle 85.7) (layer F.SilkS) (width 0.15))
    (fp_arc (start 1.311 0.034) (end 3.051 0.994) (angle 110) (layer F.SilkS) (width 0.15))
    (fp_arc (start 1.301 0.034) (end 2.335 1.094) (angle 87.5) (layer F.SilkS) (width 0.15))
    (fp_text user K (at -1.69 1.74) (layer F.SilkS)
      (effects (font (size 1 1) (thickness 0.15)))
    )
    (pad 1 thru_hole rect (at 0 0 90) (size 2 2) (drill 1.00076) (layers *.Cu *.Mask F.SilkS)
      (net 5 GND))
    (pad 2 thru_hole circle (at 2.54 0) (size 2 2) (drill 1.00076) (layers *.Cu *.Mask F.SilkS)
      (net 8 "Net-(D3-Pad2)"))
    (model LEDs.3dshapes/LED-3MM.wrl
      (offset (xyz 1.269999980926514 0 0))
      (scale (xyz 1 1 1))
      (rotate (xyz 0 0 90))
    )
  )

  (module LEDs:LED-3MM (layer F.Cu) (tedit 5CFFC4FC) (tstamp 5CFECDDA)
    (at 172.974 54.229)
    (descr "LED 3mm round vertical")
    (tags "LED  3mm round vertical")
    (path /5CFA42AF)
    (fp_text reference D4 (at 1.91 3.06) (layer F.SilkS)
      (effects (font (size 1 1) (thickness 0.15)))
    )
    (fp_text value RED (at 1.016 -5.969) (layer F.Fab)
      (effects (font (size 1 1) (thickness 0.15)))
    )
    (fp_line (start -1.2 2.3) (end 3.8 2.3) (layer F.CrtYd) (width 0.05))
    (fp_line (start 3.8 2.3) (end 3.8 -2.2) (layer F.CrtYd) (width 0.05))
    (fp_line (start 3.8 -2.2) (end -1.2 -2.2) (layer F.CrtYd) (width 0.05))
    (fp_line (start -1.2 -2.2) (end -1.2 2.3) (layer F.CrtYd) (width 0.05))
    (fp_line (start -0.199 1.314) (end -0.199 1.114) (layer F.SilkS) (width 0.15))
    (fp_line (start -0.199 -1.28) (end -0.199 -1.1) (layer F.SilkS) (width 0.15))
    (fp_arc (start 1.301 0.034) (end -0.199 -1.286) (angle 108.5) (layer F.SilkS) (width 0.15))
    (fp_arc (start 1.301 0.034) (end 0.25 -1.1) (angle 85.7) (layer F.SilkS) (width 0.15))
    (fp_arc (start 1.311 0.034) (end 3.051 0.994) (angle 110) (layer F.SilkS) (width 0.15))
    (fp_arc (start 1.301 0.034) (end 2.335 1.094) (angle 87.5) (layer F.SilkS) (width 0.15))
    (fp_text user K (at -1.69 1.74) (layer F.SilkS)
      (effects (font (size 1 1) (thickness 0.15)))
    )
    (pad 1 thru_hole rect (at 0 0 90) (size 2 2) (drill 1.00076) (layers *.Cu *.Mask F.SilkS)
      (net 5 GND))
    (pad 2 thru_hole circle (at 2.54 0) (size 2 2) (drill 1.00076) (layers *.Cu *.Mask F.SilkS)
      (net 9 "Net-(D4-Pad2)"))
    (model LEDs.3dshapes/LED-3MM.wrl
      (offset (xyz 1.269999980926514 0 0))
      (scale (xyz 1 1 1))
      (rotate (xyz 0 0 90))
    )
  )

  (module Pin_Headers:Pin_Header_Straight_1x04 (layer F.Cu) (tedit 5CFFC505) (tstamp 5CFECDE2)
    (at 206.9465 105.3465 180)
    (descr "Through hole pin header")
    (tags "pin header")
    (path /5CFAB64B)
    (fp_text reference DS1 (at 0 -5.1 180) (layer F.SilkS)
      (effects (font (size 1 1) (thickness 0.15)))
    )
    (fp_text value DISPLAY-2004-I2C (at -10.2235 3.7465 270) (layer F.Fab)
      (effects (font (size 1 1) (thickness 0.15)))
    )
    (fp_line (start -1.75 -1.75) (end -1.75 9.4) (layer F.CrtYd) (width 0.05))
    (fp_line (start 1.75 -1.75) (end 1.75 9.4) (layer F.CrtYd) (width 0.05))
    (fp_line (start -1.75 -1.75) (end 1.75 -1.75) (layer F.CrtYd) (width 0.05))
    (fp_line (start -1.75 9.4) (end 1.75 9.4) (layer F.CrtYd) (width 0.05))
    (fp_line (start -1.27 1.27) (end -1.27 8.89) (layer F.SilkS) (width 0.15))
    (fp_line (start 1.27 1.27) (end 1.27 8.89) (layer F.SilkS) (width 0.15))
    (fp_line (start 1.55 -1.55) (end 1.55 0) (layer F.SilkS) (width 0.15))
    (fp_line (start -1.27 8.89) (end 1.27 8.89) (layer F.SilkS) (width 0.15))
    (fp_line (start 1.27 1.27) (end -1.27 1.27) (layer F.SilkS) (width 0.15))
    (fp_line (start -1.55 0) (end -1.55 -1.55) (layer F.SilkS) (width 0.15))
    (fp_line (start -1.55 -1.55) (end 1.55 -1.55) (layer F.SilkS) (width 0.15))
    (pad 1 thru_hole rect (at 0 0 180) (size 2.032 1.7272) (drill 1.016) (layers *.Cu *.Mask F.SilkS)
      (net 5 GND))
    (pad 2 thru_hole oval (at 0 2.54 180) (size 2.032 1.7272) (drill 1.016) (layers *.Cu *.Mask F.SilkS)
      (net 4 +5V))
    (pad 3 thru_hole oval (at 0 5.08 180) (size 2.032 1.7272) (drill 1.016) (layers *.Cu *.Mask F.SilkS)
      (net 10 "Net-(DS1-Pad3)"))
    (pad 4 thru_hole oval (at 0 7.62 180) (size 2.032 1.7272) (drill 1.016) (layers *.Cu *.Mask F.SilkS)
      (net 11 "Net-(DS1-Pad4)"))
    (model Pin_Headers.3dshapes/Pin_Header_Straight_1x04.wrl
      (offset (xyz 0 -3.809999942779541 0))
      (scale (xyz 1 1 1))
      (rotate (xyz 0 0 90))
    )
  )

  (module myRelays:Relay_SPDT_Finder-36.11 (layer F.Cu) (tedit 5CFF88BE) (tstamp 5CFECDEB)
    (at 132.0165 93.9165 270)
    (path /5CFA4A3C)
    (fp_text reference K1 (at -0.635 1.778 270) (layer F.SilkS)
      (effects (font (size 1 1) (thickness 0.15)))
    )
    (fp_text value SRD-05VDC-SL-C (at -1.905 -0.635 270) (layer F.Fab)
      (effects (font (size 1 1) (thickness 0.15)))
    )
    (fp_line (start -10.16 -8.382) (end 8.89 -8.382) (layer F.SilkS) (width 0.15))
    (fp_line (start 8.89 -8.382) (end 8.89 7.366) (layer F.SilkS) (width 0.15))
    (fp_line (start 8.89 7.366) (end -10.16 7.366) (layer F.SilkS) (width 0.15))
    (fp_line (start -10.16 7.366) (end -10.16 -8.382) (layer F.SilkS) (width 0.15))
    (pad C1 thru_hole circle (at -6.731 5.588 270) (size 2.54 2.54) (drill 0.762) (layers *.Cu *.Mask F.SilkS)
      (net 12 "Net-(K1-PadC1)"))
    (pad O1 thru_hole circle (at -6.731 -6.477 270) (size 2.54 2.54) (drill 0.762) (layers *.Cu *.Mask F.SilkS)
      (net 13 "Net-(K1-PadO1)"))
    (pad 1 thru_hole circle (at 5.461 -6.477 270) (size 2.54 2.54) (drill 0.762) (layers *.Cu *.Mask F.SilkS)
      (net 6 "Net-(D1-Pad2)"))
    (pad 2 thru_hole circle (at 5.461 5.588 270) (size 2.54 2.54) (drill 0.762) (layers *.Cu *.Mask F.SilkS)
      (net 4 +5V))
    (pad P1 thru_hole circle (at 7.493 -0.508 270) (size 2.54 2.54) (drill 0.762) (layers *.Cu *.Mask F.SilkS)
      (net 14 "Net-(K1-PadP1)"))
  )

  (module myRelays:Relay_SPDT_Finder-36.11 (layer F.Cu) (tedit 5CFF88B7) (tstamp 5CFECDF4)
    (at 114.2365 93.9165 270)
    (path /5CFA4AE5)
    (fp_text reference K2 (at -0.635 1.778 270) (layer F.SilkS)
      (effects (font (size 1 1) (thickness 0.15)))
    )
    (fp_text value SRD-05VDC-SL-C (at -1.905 -0.635 270) (layer F.Fab)
      (effects (font (size 1 1) (thickness 0.15)))
    )
    (fp_line (start -10.16 -8.382) (end 8.89 -8.382) (layer F.SilkS) (width 0.15))
    (fp_line (start 8.89 -8.382) (end 8.89 7.366) (layer F.SilkS) (width 0.15))
    (fp_line (start 8.89 7.366) (end -10.16 7.366) (layer F.SilkS) (width 0.15))
    (fp_line (start -10.16 7.366) (end -10.16 -8.382) (layer F.SilkS) (width 0.15))
    (pad C1 thru_hole circle (at -6.731 5.588 270) (size 2.54 2.54) (drill 0.762) (layers *.Cu *.Mask F.SilkS)
      (net 15 "Net-(K2-PadC1)"))
    (pad O1 thru_hole circle (at -6.731 -6.477 270) (size 2.54 2.54) (drill 0.762) (layers *.Cu *.Mask F.SilkS)
      (net 16 "Net-(K2-PadO1)"))
    (pad 1 thru_hole circle (at 5.461 -6.477 270) (size 2.54 2.54) (drill 0.762) (layers *.Cu *.Mask F.SilkS)
      (net 7 "Net-(D2-Pad2)"))
    (pad 2 thru_hole circle (at 5.461 5.588 270) (size 2.54 2.54) (drill 0.762) (layers *.Cu *.Mask F.SilkS)
      (net 4 +5V))
    (pad P1 thru_hole circle (at 7.493 -0.508 270) (size 2.54 2.54) (drill 0.762) (layers *.Cu *.Mask F.SilkS)
      (net 14 "Net-(K1-PadP1)"))
  )

  (module Pin_Headers:Pin_Header_Straight_1x07 (layer F.Cu) (tedit 5CFF9338) (tstamp 5CFECDFF)
    (at 184.0865 62.1665 270)
    (descr "Through hole pin header")
    (tags "pin header")
    (path /5CFA3F7B)
    (fp_text reference K3 (at 0 -5.1 270) (layer F.SilkS)
      (effects (font (size 1 1) (thickness 0.15)))
    )
    (fp_text value KEYBOARD-MATRIX-12 (at -3.175 7.62) (layer F.Fab)
      (effects (font (size 1 1) (thickness 0.15)))
    )
    (fp_line (start -1.75 -1.75) (end -1.75 17) (layer F.CrtYd) (width 0.05))
    (fp_line (start 1.75 -1.75) (end 1.75 17) (layer F.CrtYd) (width 0.05))
    (fp_line (start -1.75 -1.75) (end 1.75 -1.75) (layer F.CrtYd) (width 0.05))
    (fp_line (start -1.75 17) (end 1.75 17) (layer F.CrtYd) (width 0.05))
    (fp_line (start 1.27 1.27) (end 1.27 16.51) (layer F.SilkS) (width 0.15))
    (fp_line (start 1.27 16.51) (end -1.27 16.51) (layer F.SilkS) (width 0.15))
    (fp_line (start -1.27 16.51) (end -1.27 1.27) (layer F.SilkS) (width 0.15))
    (fp_line (start 1.55 -1.55) (end 1.55 0) (layer F.SilkS) (width 0.15))
    (fp_line (start 1.27 1.27) (end -1.27 1.27) (layer F.SilkS) (width 0.15))
    (fp_line (start -1.55 0) (end -1.55 -1.55) (layer F.SilkS) (width 0.15))
    (fp_line (start -1.55 -1.55) (end 1.55 -1.55) (layer F.SilkS) (width 0.15))
    (pad 1 thru_hole rect (at 0 0 270) (size 2.032 1.7272) (drill 1.016) (layers *.Cu *.Mask F.SilkS)
      (net 17 "Net-(K3-Pad1)"))
    (pad 2 thru_hole oval (at 0 2.54 270) (size 2.032 1.7272) (drill 1.016) (layers *.Cu *.Mask F.SilkS)
      (net 18 "Net-(K3-Pad2)"))
    (pad 3 thru_hole oval (at 0 5.08 270) (size 2.032 1.7272) (drill 1.016) (layers *.Cu *.Mask F.SilkS)
      (net 19 "Net-(K3-Pad3)"))
    (pad 4 thru_hole oval (at 0 7.62 270) (size 2.032 1.7272) (drill 1.016) (layers *.Cu *.Mask F.SilkS)
      (net 20 "Net-(K3-Pad4)"))
    (pad 5 thru_hole oval (at 0 10.16 270) (size 2.032 1.7272) (drill 1.016) (layers *.Cu *.Mask F.SilkS)
      (net 21 "Net-(K3-Pad5)"))
    (pad 6 thru_hole oval (at 0 12.7 270) (size 2.032 1.7272) (drill 1.016) (layers *.Cu *.Mask F.SilkS)
      (net 22 "Net-(K3-Pad6)"))
    (pad 7 thru_hole oval (at 0 15.24 270) (size 2.032 1.7272) (drill 1.016) (layers *.Cu *.Mask F.SilkS)
      (net 23 "Net-(K3-Pad7)"))
    (model Pin_Headers.3dshapes/Pin_Header_Straight_1x07.wrl
      (offset (xyz 0 -7.619999885559082 0))
      (scale (xyz 1 1 1))
      (rotate (xyz 0 0 90))
    )
  )

  (module Connect:bornier2 (layer F.Cu) (tedit 5CFF876D) (tstamp 5CFECE0C)
    (at 91.3765 62.1665)
    (descr "Bornier d'alimentation 2 pins")
    (tags DEV)
    (path /5CFA5729)
    (fp_text reference P2 (at -7.62 0 90) (layer F.SilkS)
      (effects (font (size 1 1) (thickness 0.15)))
    )
    (fp_text value 230V (at 0 -8.89) (layer F.Fab)
      (effects (font (size 1 1) (thickness 0.15)))
    )
    (fp_line (start 5.08 2.54) (end -5.08 2.54) (layer F.SilkS) (width 0.15))
    (fp_line (start 5.08 3.81) (end 5.08 -3.81) (layer F.SilkS) (width 0.15))
    (fp_line (start 5.08 -3.81) (end -5.08 -3.81) (layer F.SilkS) (width 0.15))
    (fp_line (start -5.08 -3.81) (end -5.08 3.81) (layer F.SilkS) (width 0.15))
    (fp_line (start -5.08 3.81) (end 5.08 3.81) (layer F.SilkS) (width 0.15))
    (pad 1 thru_hole rect (at -2.54 0) (size 2.54 2.54) (drill 1.524) (layers *.Cu *.Mask F.SilkS)
      (net 2 "Net-(C1-Pad2)"))
    (pad 2 thru_hole circle (at 2.54 0) (size 2.54 2.54) (drill 1.524) (layers *.Cu *.Mask F.SilkS)
      (net 14 "Net-(K1-PadP1)"))
    (model Connect.3dshapes/bornier2.wrl
      (at (xyz 0 0 0))
      (scale (xyz 1 1 1))
      (rotate (xyz 0 0 0))
    )
  )

  (module Pin_Headers:Pin_Header_Straight_1x03 (layer F.Cu) (tedit 5CFEDBEF) (tstamp 5CFECE13)
    (at 191.7065 62.1665 90)
    (descr "Through hole pin header")
    (tags "pin header")
    (path /5CFCB007)
    (fp_text reference P3 (at 0 -5.1 90) (layer F.SilkS)
      (effects (font (size 1 1) (thickness 0.15)))
    )
    (fp_text value FLOW-SENSOR (at 6.35 2.54 180) (layer F.Fab)
      (effects (font (size 1 1) (thickness 0.15)))
    )
    (fp_line (start -1.75 -1.75) (end -1.75 6.85) (layer F.CrtYd) (width 0.05))
    (fp_line (start 1.75 -1.75) (end 1.75 6.85) (layer F.CrtYd) (width 0.05))
    (fp_line (start -1.75 -1.75) (end 1.75 -1.75) (layer F.CrtYd) (width 0.05))
    (fp_line (start -1.75 6.85) (end 1.75 6.85) (layer F.CrtYd) (width 0.05))
    (fp_line (start -1.27 1.27) (end -1.27 6.35) (layer F.SilkS) (width 0.15))
    (fp_line (start -1.27 6.35) (end 1.27 6.35) (layer F.SilkS) (width 0.15))
    (fp_line (start 1.27 6.35) (end 1.27 1.27) (layer F.SilkS) (width 0.15))
    (fp_line (start 1.55 -1.55) (end 1.55 0) (layer F.SilkS) (width 0.15))
    (fp_line (start 1.27 1.27) (end -1.27 1.27) (layer F.SilkS) (width 0.15))
    (fp_line (start -1.55 0) (end -1.55 -1.55) (layer F.SilkS) (width 0.15))
    (fp_line (start -1.55 -1.55) (end 1.55 -1.55) (layer F.SilkS) (width 0.15))
    (pad 1 thru_hole rect (at 0 0 90) (size 2.032 1.7272) (drill 1.016) (layers *.Cu *.Mask F.SilkS)
      (net 4 +5V))
    (pad 2 thru_hole oval (at 0 2.54 90) (size 2.032 1.7272) (drill 1.016) (layers *.Cu *.Mask F.SilkS)
      (net 24 "Net-(P3-Pad2)"))
    (pad 3 thru_hole oval (at 0 5.08 90) (size 2.032 1.7272) (drill 1.016) (layers *.Cu *.Mask F.SilkS)
      (net 5 GND))
    (model Pin_Headers.3dshapes/Pin_Header_Straight_1x03.wrl
      (offset (xyz 0 -2.539999961853027 0))
      (scale (xyz 1 1 1))
      (rotate (xyz 0 0 90))
    )
  )

  (module TO_SOT_Packages_THT:TO-92_Inline_Wide (layer F.Cu) (tedit 5CFEDBC4) (tstamp 5CFECE20)
    (at 153.6065 101.5365 180)
    (descr "TO-92 leads in-line, wide, drill 0.8mm (see NXP sot054_po.pdf)")
    (tags "to-92 sc-43 sc-43a sot54 PA33 transistor")
    (path /5CFA4E5D)
    (fp_text reference Q1 (at 6.35 -2.54 90) (layer F.SilkS)
      (effects (font (size 1 1) (thickness 0.15)))
    )
    (fp_text value PN2222A (at 2.54 -3.81 180) (layer F.Fab)
      (effects (font (size 1 1) (thickness 0.15)))
    )
    (fp_arc (start 2.54 0) (end 0.84 1.7) (angle 20.5) (layer F.SilkS) (width 0.15))
    (fp_arc (start 2.54 0) (end 4.24 1.7) (angle -20.5) (layer F.SilkS) (width 0.15))
    (fp_line (start -1 1.95) (end -1 -2.65) (layer F.CrtYd) (width 0.05))
    (fp_line (start -1 1.95) (end 6.1 1.95) (layer F.CrtYd) (width 0.05))
    (fp_line (start 0.84 1.7) (end 4.24 1.7) (layer F.SilkS) (width 0.15))
    (fp_arc (start 2.54 0) (end 2.54 -2.4) (angle -65.55604127) (layer F.SilkS) (width 0.15))
    (fp_arc (start 2.54 0) (end 2.54 -2.4) (angle 65.55604127) (layer F.SilkS) (width 0.15))
    (fp_line (start -1 -2.65) (end 6.1 -2.65) (layer F.CrtYd) (width 0.05))
    (fp_line (start 6.1 1.95) (end 6.1 -2.65) (layer F.CrtYd) (width 0.05))
    (pad 2 thru_hole circle (at 2.54 0 270) (size 1.524 1.524) (drill 0.8) (layers *.Cu *.Mask F.SilkS)
      (net 26 "Net-(Q1-Pad2)"))
    (pad 3 thru_hole circle (at 5.08 0 270) (size 1.524 1.524) (drill 0.8) (layers *.Cu *.Mask F.SilkS)
      (net 6 "Net-(D1-Pad2)"))
    (pad 1 thru_hole circle (at 0 0 270) (size 1.524 1.524) (drill 0.8) (layers *.Cu *.Mask F.SilkS)
      (net 5 GND))
    (model TO_SOT_Packages_THT.3dshapes/TO-92_Inline_Wide.wrl
      (offset (xyz 2.539999961853027 0 0))
      (scale (xyz 1 1 1))
      (rotate (xyz 0 0 -90))
    )
  )

  (module TO_SOT_Packages_THT:TO-92_Inline_Wide (layer F.Cu) (tedit 5CFEDBC9) (tstamp 5CFECE27)
    (at 153.6065 95.1865 180)
    (descr "TO-92 leads in-line, wide, drill 0.8mm (see NXP sot054_po.pdf)")
    (tags "to-92 sc-43 sc-43a sot54 PA33 transistor")
    (path /5CFA4B7A)
    (fp_text reference Q2 (at 6.35 -2.54 90) (layer F.SilkS)
      (effects (font (size 1 1) (thickness 0.15)))
    )
    (fp_text value PN2222A (at 2.54 -3.81 180) (layer F.Fab)
      (effects (font (size 1 1) (thickness 0.15)))
    )
    (fp_arc (start 2.54 0) (end 0.84 1.7) (angle 20.5) (layer F.SilkS) (width 0.15))
    (fp_arc (start 2.54 0) (end 4.24 1.7) (angle -20.5) (layer F.SilkS) (width 0.15))
    (fp_line (start -1 1.95) (end -1 -2.65) (layer F.CrtYd) (width 0.05))
    (fp_line (start -1 1.95) (end 6.1 1.95) (layer F.CrtYd) (width 0.05))
    (fp_line (start 0.84 1.7) (end 4.24 1.7) (layer F.SilkS) (width 0.15))
    (fp_arc (start 2.54 0) (end 2.54 -2.4) (angle -65.55604127) (layer F.SilkS) (width 0.15))
    (fp_arc (start 2.54 0) (end 2.54 -2.4) (angle 65.55604127) (layer F.SilkS) (width 0.15))
    (fp_line (start -1 -2.65) (end 6.1 -2.65) (layer F.CrtYd) (width 0.05))
    (fp_line (start 6.1 1.95) (end 6.1 -2.65) (layer F.CrtYd) (width 0.05))
    (pad 2 thru_hole circle (at 2.54 0 270) (size 1.524 1.524) (drill 0.8) (layers *.Cu *.Mask F.SilkS)
      (net 27 "Net-(Q2-Pad2)"))
    (pad 3 thru_hole circle (at 5.08 0 270) (size 1.524 1.524) (drill 0.8) (layers *.Cu *.Mask F.SilkS)
      (net 7 "Net-(D2-Pad2)"))
    (pad 1 thru_hole circle (at 0 0 270) (size 1.524 1.524) (drill 0.8) (layers *.Cu *.Mask F.SilkS)
      (net 5 GND))
    (model TO_SOT_Packages_THT.3dshapes/TO-92_Inline_Wide.wrl
      (offset (xyz 2.539999961853027 0 0))
      (scale (xyz 1 1 1))
      (rotate (xyz 0 0 -90))
    )
  )

  (module Resistors_ThroughHole:Resistor_Horizontal_RM10mm (layer F.Cu) (tedit 5CFECE26) (tstamp 5CFECE2D)
    (at 124.3965 79.3115 180)
    (descr "Resistor, Axial,  RM 10mm, 1/3W")
    (tags "Resistor Axial RM 10mm 1/3W")
    (path /5CFA74CF)
    (fp_text reference R1 (at 5.08 -2.54 180) (layer F.SilkS)
      (effects (font (size 1 1) (thickness 0.15)))
    )
    (fp_text value 100 (at 5.08 0 180) (layer F.Fab)
      (effects (font (size 1 1) (thickness 0.15)))
    )
    (fp_line (start -1.25 -1.5) (end 11.4 -1.5) (layer F.CrtYd) (width 0.05))
    (fp_line (start -1.25 1.5) (end -1.25 -1.5) (layer F.CrtYd) (width 0.05))
    (fp_line (start 11.4 -1.5) (end 11.4 1.5) (layer F.CrtYd) (width 0.05))
    (fp_line (start -1.25 1.5) (end 11.4 1.5) (layer F.CrtYd) (width 0.05))
    (fp_line (start 2.54 -1.27) (end 7.62 -1.27) (layer F.SilkS) (width 0.15))
    (fp_line (start 7.62 -1.27) (end 7.62 1.27) (layer F.SilkS) (width 0.15))
    (fp_line (start 7.62 1.27) (end 2.54 1.27) (layer F.SilkS) (width 0.15))
    (fp_line (start 2.54 1.27) (end 2.54 -1.27) (layer F.SilkS) (width 0.15))
    (fp_line (start 2.54 0) (end 1.27 0) (layer F.SilkS) (width 0.15))
    (fp_line (start 7.62 0) (end 8.89 0) (layer F.SilkS) (width 0.15))
    (pad 1 thru_hole circle (at 0 0 180) (size 1.99898 1.99898) (drill 1.00076) (layers *.Cu *.SilkS *.Mask)
      (net 1 "Net-(C1-Pad1)"))
    (pad 2 thru_hole circle (at 10.16 0 180) (size 1.99898 1.99898) (drill 1.00076) (layers *.Cu *.SilkS *.Mask)
      (net 16 "Net-(K2-PadO1)"))
    (model Resistors_ThroughHole.3dshapes/Resistor_Horizontal_RM10mm.wrl
      (at (xyz 0 0 0))
      (scale (xyz 0.4 0.4 0.4))
      (rotate (xyz 0 0 0))
    )
  )

  (module Resistors_ThroughHole:Resistor_Horizontal_RM10mm (layer F.Cu) (tedit 5CFECE23) (tstamp 5CFECE33)
    (at 124.3965 72.3265 180)
    (descr "Resistor, Axial,  RM 10mm, 1/3W")
    (tags "Resistor Axial RM 10mm 1/3W")
    (path /5CFA727B)
    (fp_text reference R2 (at 5.08 -2.54 180) (layer F.SilkS)
      (effects (font (size 1 1) (thickness 0.15)))
    )
    (fp_text value 100 (at 5.08 0 180) (layer F.Fab)
      (effects (font (size 1 1) (thickness 0.15)))
    )
    (fp_line (start -1.25 -1.5) (end 11.4 -1.5) (layer F.CrtYd) (width 0.05))
    (fp_line (start -1.25 1.5) (end -1.25 -1.5) (layer F.CrtYd) (width 0.05))
    (fp_line (start 11.4 -1.5) (end 11.4 1.5) (layer F.CrtYd) (width 0.05))
    (fp_line (start -1.25 1.5) (end 11.4 1.5) (layer F.CrtYd) (width 0.05))
    (fp_line (start 2.54 -1.27) (end 7.62 -1.27) (layer F.SilkS) (width 0.15))
    (fp_line (start 7.62 -1.27) (end 7.62 1.27) (layer F.SilkS) (width 0.15))
    (fp_line (start 7.62 1.27) (end 2.54 1.27) (layer F.SilkS) (width 0.15))
    (fp_line (start 2.54 1.27) (end 2.54 -1.27) (layer F.SilkS) (width 0.15))
    (fp_line (start 2.54 0) (end 1.27 0) (layer F.SilkS) (width 0.15))
    (fp_line (start 7.62 0) (end 8.89 0) (layer F.SilkS) (width 0.15))
    (pad 1 thru_hole circle (at 0 0 180) (size 1.99898 1.99898) (drill 1.00076) (layers *.Cu *.SilkS *.Mask)
      (net 3 "Net-(C2-Pad1)"))
    (pad 2 thru_hole circle (at 10.16 0 180) (size 1.99898 1.99898) (drill 1.00076) (layers *.Cu *.SilkS *.Mask)
      (net 13 "Net-(K1-PadO1)"))
    (model Resistors_ThroughHole.3dshapes/Resistor_Horizontal_RM10mm.wrl
      (at (xyz 0 0 0))
      (scale (xyz 0.4 0.4 0.4))
      (rotate (xyz 0 0 0))
    )
  )

  (module Resistors_ThroughHole:Resistor_Horizontal_RM10mm (layer F.Cu) (tedit 5CFECE20) (tstamp 5CFECE39)
    (at 167.5765 101.5365 180)
    (descr "Resistor, Axial,  RM 10mm, 1/3W")
    (tags "Resistor Axial RM 10mm 1/3W")
    (path /5CFA4E63)
    (fp_text reference R3 (at 5.08 -2.54 180) (layer F.SilkS)
      (effects (font (size 1 1) (thickness 0.15)))
    )
    (fp_text value 1K (at 5.08 0 180) (layer F.Fab)
      (effects (font (size 1 1) (thickness 0.15)))
    )
    (fp_line (start -1.25 -1.5) (end 11.4 -1.5) (layer F.CrtYd) (width 0.05))
    (fp_line (start -1.25 1.5) (end -1.25 -1.5) (layer F.CrtYd) (width 0.05))
    (fp_line (start 11.4 -1.5) (end 11.4 1.5) (layer F.CrtYd) (width 0.05))
    (fp_line (start -1.25 1.5) (end 11.4 1.5) (layer F.CrtYd) (width 0.05))
    (fp_line (start 2.54 -1.27) (end 7.62 -1.27) (layer F.SilkS) (width 0.15))
    (fp_line (start 7.62 -1.27) (end 7.62 1.27) (layer F.SilkS) (width 0.15))
    (fp_line (start 7.62 1.27) (end 2.54 1.27) (layer F.SilkS) (width 0.15))
    (fp_line (start 2.54 1.27) (end 2.54 -1.27) (layer F.SilkS) (width 0.15))
    (fp_line (start 2.54 0) (end 1.27 0) (layer F.SilkS) (width 0.15))
    (fp_line (start 7.62 0) (end 8.89 0) (layer F.SilkS) (width 0.15))
    (pad 1 thru_hole circle (at 0 0 180) (size 1.99898 1.99898) (drill 1.00076) (layers *.Cu *.SilkS *.Mask)
      (net 28 "Net-(R3-Pad1)"))
    (pad 2 thru_hole circle (at 10.16 0 180) (size 1.99898 1.99898) (drill 1.00076) (layers *.Cu *.SilkS *.Mask)
      (net 26 "Net-(Q1-Pad2)"))
    (model Resistors_ThroughHole.3dshapes/Resistor_Horizontal_RM10mm.wrl
      (at (xyz 0 0 0))
      (scale (xyz 0.4 0.4 0.4))
      (rotate (xyz 0 0 0))
    )
  )

  (module Resistors_ThroughHole:Resistor_Horizontal_RM10mm (layer F.Cu) (tedit 5CFECE1D) (tstamp 5CFECE3F)
    (at 167.5765 95.1865 180)
    (descr "Resistor, Axial,  RM 10mm, 1/3W")
    (tags "Resistor Axial RM 10mm 1/3W")
    (path /5CFA4C39)
    (fp_text reference R4 (at 5.08 -2.54 180) (layer F.SilkS)
      (effects (font (size 1 1) (thickness 0.15)))
    )
    (fp_text value 1K (at 5.08 0 180) (layer F.Fab)
      (effects (font (size 1 1) (thickness 0.15)))
    )
    (fp_line (start -1.25 -1.5) (end 11.4 -1.5) (layer F.CrtYd) (width 0.05))
    (fp_line (start -1.25 1.5) (end -1.25 -1.5) (layer F.CrtYd) (width 0.05))
    (fp_line (start 11.4 -1.5) (end 11.4 1.5) (layer F.CrtYd) (width 0.05))
    (fp_line (start -1.25 1.5) (end 11.4 1.5) (layer F.CrtYd) (width 0.05))
    (fp_line (start 2.54 -1.27) (end 7.62 -1.27) (layer F.SilkS) (width 0.15))
    (fp_line (start 7.62 -1.27) (end 7.62 1.27) (layer F.SilkS) (width 0.15))
    (fp_line (start 7.62 1.27) (end 2.54 1.27) (layer F.SilkS) (width 0.15))
    (fp_line (start 2.54 1.27) (end 2.54 -1.27) (layer F.SilkS) (width 0.15))
    (fp_line (start 2.54 0) (end 1.27 0) (layer F.SilkS) (width 0.15))
    (fp_line (start 7.62 0) (end 8.89 0) (layer F.SilkS) (width 0.15))
    (pad 1 thru_hole circle (at 0 0 180) (size 1.99898 1.99898) (drill 1.00076) (layers *.Cu *.SilkS *.Mask)
      (net 29 "Net-(R4-Pad1)"))
    (pad 2 thru_hole circle (at 10.16 0 180) (size 1.99898 1.99898) (drill 1.00076) (layers *.Cu *.SilkS *.Mask)
      (net 27 "Net-(Q2-Pad2)"))
    (model Resistors_ThroughHole.3dshapes/Resistor_Horizontal_RM10mm.wrl
      (at (xyz 0 0 0))
      (scale (xyz 0.4 0.4 0.4))
      (rotate (xyz 0 0 0))
    )
  )

  (module Resistors_ThroughHole:Resistor_Horizontal_RM10mm (layer F.Cu) (tedit 5CFEDBA8) (tstamp 5CFECE4B)
    (at 153.6065 82.4865 90)
    (descr "Resistor, Axial,  RM 10mm, 1/3W")
    (tags "Resistor Axial RM 10mm 1/3W")
    (path /5CFA4313)
    (fp_text reference R6 (at -2.54 0 90) (layer F.SilkS)
      (effects (font (size 1 1) (thickness 0.15)))
    )
    (fp_text value 2.2K (at 5.08 0 90) (layer F.Fab)
      (effects (font (size 1 1) (thickness 0.15)))
    )
    (fp_line (start -1.25 -1.5) (end 11.4 -1.5) (layer F.CrtYd) (width 0.05))
    (fp_line (start -1.25 1.5) (end -1.25 -1.5) (layer F.CrtYd) (width 0.05))
    (fp_line (start 11.4 -1.5) (end 11.4 1.5) (layer F.CrtYd) (width 0.05))
    (fp_line (start -1.25 1.5) (end 11.4 1.5) (layer F.CrtYd) (width 0.05))
    (fp_line (start 2.54 -1.27) (end 7.62 -1.27) (layer F.SilkS) (width 0.15))
    (fp_line (start 7.62 -1.27) (end 7.62 1.27) (layer F.SilkS) (width 0.15))
    (fp_line (start 7.62 1.27) (end 2.54 1.27) (layer F.SilkS) (width 0.15))
    (fp_line (start 2.54 1.27) (end 2.54 -1.27) (layer F.SilkS) (width 0.15))
    (fp_line (start 2.54 0) (end 1.27 0) (layer F.SilkS) (width 0.15))
    (fp_line (start 7.62 0) (end 8.89 0) (layer F.SilkS) (width 0.15))
    (pad 1 thru_hole circle (at 0 0 90) (size 1.99898 1.99898) (drill 1.00076) (layers *.Cu *.SilkS *.Mask)
      (net 30 "Net-(R6-Pad1)"))
    (pad 2 thru_hole circle (at 10.16 0 90) (size 1.99898 1.99898) (drill 1.00076) (layers *.Cu *.SilkS *.Mask)
      (net 8 "Net-(D3-Pad2)"))
    (model Resistors_ThroughHole.3dshapes/Resistor_Horizontal_RM10mm.wrl
      (at (xyz 0 0 0))
      (scale (xyz 0.4 0.4 0.4))
      (rotate (xyz 0 0 0))
    )
  )

  (module Resistors_ThroughHole:Resistor_Horizontal_RM10mm (layer F.Cu) (tedit 5CFEDBA5) (tstamp 5CFECE51)
    (at 157.4165 82.4865 90)
    (descr "Resistor, Axial,  RM 10mm, 1/3W")
    (tags "Resistor Axial RM 10mm 1/3W")
    (path /5CFA44B7)
    (fp_text reference R7 (at -2.54 0 90) (layer F.SilkS)
      (effects (font (size 1 1) (thickness 0.15)))
    )
    (fp_text value 2.2K (at 5.08 0 90) (layer F.Fab)
      (effects (font (size 1 1) (thickness 0.15)))
    )
    (fp_line (start -1.25 -1.5) (end 11.4 -1.5) (layer F.CrtYd) (width 0.05))
    (fp_line (start -1.25 1.5) (end -1.25 -1.5) (layer F.CrtYd) (width 0.05))
    (fp_line (start 11.4 -1.5) (end 11.4 1.5) (layer F.CrtYd) (width 0.05))
    (fp_line (start -1.25 1.5) (end 11.4 1.5) (layer F.CrtYd) (width 0.05))
    (fp_line (start 2.54 -1.27) (end 7.62 -1.27) (layer F.SilkS) (width 0.15))
    (fp_line (start 7.62 -1.27) (end 7.62 1.27) (layer F.SilkS) (width 0.15))
    (fp_line (start 7.62 1.27) (end 2.54 1.27) (layer F.SilkS) (width 0.15))
    (fp_line (start 2.54 1.27) (end 2.54 -1.27) (layer F.SilkS) (width 0.15))
    (fp_line (start 2.54 0) (end 1.27 0) (layer F.SilkS) (width 0.15))
    (fp_line (start 7.62 0) (end 8.89 0) (layer F.SilkS) (width 0.15))
    (pad 1 thru_hole circle (at 0 0 90) (size 1.99898 1.99898) (drill 1.00076) (layers *.Cu *.SilkS *.Mask)
      (net 31 "Net-(R7-Pad1)"))
    (pad 2 thru_hole circle (at 10.16 0 90) (size 1.99898 1.99898) (drill 1.00076) (layers *.Cu *.SilkS *.Mask)
      (net 9 "Net-(D4-Pad2)"))
    (model Resistors_ThroughHole.3dshapes/Resistor_Horizontal_RM10mm.wrl
      (at (xyz 0 0 0))
      (scale (xyz 0.4 0.4 0.4))
      (rotate (xyz 0 0 0))
    )
  )

  (module myPowerSupplies:MEANWELL_IRM-05-XX (layer F.Cu) (tedit 5CFF88E8) (tstamp 5CFECE59)
    (at 91.3765 77.4065 270)
    (path /5CFA5655)
    (fp_text reference U1 (at 20.32 -6.985 270) (layer F.SilkS)
      (effects (font (size 1.524 1.524) (thickness 0.3048)))
    )
    (fp_text value IRM-05-5 (at 15.875 -3.81 270) (layer F.SilkS)
      (effects (font (size 1.524 1.524) (thickness 0.3048)))
    )
    (fp_line (start -3.81 -11.43) (end -3.81 13.97) (layer F.SilkS) (width 0.381))
    (fp_line (start -3.81 13.97) (end 41.91 13.97) (layer F.SilkS) (width 0.381))
    (fp_line (start 41.91 13.97) (end 41.91 -11.43) (layer F.SilkS) (width 0.381))
    (fp_line (start 41.91 -11.43) (end -3.81 -11.43) (layer F.SilkS) (width 0.381))
    (pad 2 thru_hole circle (at 0 10.16 270) (size 3.81 3.81) (drill 1) (layers *.Cu *.Mask F.SilkS)
      (net 2 "Net-(C1-Pad2)"))
    (pad 1 thru_hole circle (at 0 0 270) (size 3.81 3.81) (drill 1) (layers *.Cu *.Mask F.SilkS)
      (net 14 "Net-(K1-PadP1)"))
    (pad 3 thru_hole circle (at 38.1 10.16 270) (size 3.81 3.81) (drill 1) (layers *.Cu *.Mask F.SilkS)
      (net 5 GND))
    (pad 4 thru_hole circle (at 38.1 2.54 270) (size 3.81 3.81) (drill 1) (layers *.Cu *.Mask F.SilkS)
      (net 4 +5V))
  )

  (module myMicroControllers:Arduino-nano (layer F.Cu) (tedit 5CFF8EE0) (tstamp 5CFECE85)
    (at 163.7665 85.0265 90)
    (descr "32-lead dip package, row spacing 15.24 mm (600 mils), longer pads")
    (tags "dil dip 2.54 600")
    (path /5CFA94DC)
    (fp_text reference U3 (at 7.62 4.445 270) (layer F.SilkS)
      (effects (font (size 1 1) (thickness 0.15)))
    )
    (fp_text value arduino_nano (at 7.62 11.43 180) (layer F.Fab)
      (effects (font (size 1 1) (thickness 0.15)))
    )
    (fp_line (start 3.81 -3.81) (end 3.81 5.715) (layer F.SilkS) (width 0.15))
    (fp_line (start 3.81 5.715) (end 11.43 5.715) (layer F.SilkS) (width 0.15))
    (fp_line (start 11.43 5.715) (end 11.43 -3.81) (layer F.SilkS) (width 0.15))
    (fp_line (start 11.43 -3.81) (end 3.81 -3.81) (layer F.SilkS) (width 0.15))
    (fp_text user MINI-USB (at 7.62 0 90) (layer F.SilkS)
      (effects (font (size 1 1) (thickness 0.15)))
    )
    (fp_line (start -1.4 -2.45) (end -1.4 38.13) (layer F.CrtYd) (width 0.05))
    (fp_line (start 16.65 -2.45) (end 16.65 38.13) (layer F.CrtYd) (width 0.05))
    (fp_line (start -1.4 -2.45) (end 16.65 -2.45) (layer F.CrtYd) (width 0.05))
    (fp_line (start -1.4 38.137) (end 16.65 38.137) (layer F.CrtYd) (width 0.05))
    (fp_line (start 0.135 -2.295) (end 0.135 -1.025) (layer F.SilkS) (width 0.15))
    (fp_line (start 15.105 -2.295) (end 15.105 -1.025) (layer F.SilkS) (width 0.15))
    (fp_line (start 15.105 37.855) (end 15.105 36.585) (layer F.SilkS) (width 0.15))
    (fp_line (start 0.135 37.855) (end 0.135 36.585) (layer F.SilkS) (width 0.15))
    (fp_line (start 0.135 -2.295) (end 15.105 -2.295) (layer F.SilkS) (width 0.15))
    (fp_line (start 0.135 37.855) (end 15.105 37.855) (layer F.SilkS) (width 0.15))
    (fp_line (start 0.135 -1.025) (end -1.15 -1.025) (layer F.SilkS) (width 0.15))
    (pad 1 thru_hole oval (at 0 0 90) (size 2.3 1.6) (drill 0.8) (layers *.Cu *.Mask F.SilkS)
      (net 34 "Net-(U3-Pad1)"))
    (pad 2 thru_hole oval (at 0 2.54 90) (size 2.3 1.6) (drill 0.8) (layers *.Cu *.Mask F.SilkS)
      (net 35 "Net-(U3-Pad2)"))
    (pad 3 thru_hole oval (at 0 5.08 90) (size 2.3 1.6) (drill 0.8) (layers *.Cu *.Mask F.SilkS)
      (net 36 "Net-(U3-Pad3)"))
    (pad 4 thru_hole oval (at 0 7.62 90) (size 2.3 1.6) (drill 0.8) (layers *.Cu *.Mask F.SilkS)
      (net 28 "Net-(R3-Pad1)"))
    (pad 5 thru_hole oval (at 0 10.16 90) (size 2.3 1.6) (drill 0.8) (layers *.Cu *.Mask F.SilkS)
      (net 29 "Net-(R4-Pad1)"))
    (pad 6 thru_hole oval (at 0 12.7 90) (size 2.3 1.6) (drill 0.8) (layers *.Cu *.Mask F.SilkS)
      (net 25 "Net-(P4-Pad2)"))
    (pad 7 thru_hole oval (at 0 15.24 90) (size 2.3 1.6) (drill 0.8) (layers *.Cu *.Mask F.SilkS)
      (net 45 "Net-(U3-Pad7)"))
    (pad 8 thru_hole oval (at 0 17.78 90) (size 2.3 1.6) (drill 0.8) (layers *.Cu *.Mask F.SilkS)
      (net 10 "Net-(DS1-Pad3)"))
    (pad 9 thru_hole oval (at 0 20.32 90) (size 2.3 1.6) (drill 0.8) (layers *.Cu *.Mask F.SilkS)
      (net 11 "Net-(DS1-Pad4)"))
    (pad 10 thru_hole oval (at 0 22.86 90) (size 2.3 1.6) (drill 0.8) (layers *.Cu *.Mask F.SilkS)
      (net 37 "Net-(U3-Pad10)"))
    (pad 11 thru_hole oval (at 0 25.4 90) (size 2.3 1.6) (drill 0.8) (layers *.Cu *.Mask F.SilkS)
      (net 46 "Net-(U3-Pad11)"))
    (pad 12 thru_hole oval (at 0 27.94 90) (size 2.3 1.6) (drill 0.8) (layers *.Cu *.Mask F.SilkS)
      (net 4 +5V))
    (pad 13 thru_hole oval (at 0 30.48 90) (size 2.3 1.6) (drill 0.8) (layers *.Cu *.Mask F.SilkS)
      (net 38 "Net-(U3-Pad13)"))
    (pad 14 thru_hole oval (at 0 33.02 90) (size 2.3 1.6) (drill 0.8) (layers *.Cu *.Mask F.SilkS)
      (net 39 "Net-(U3-Pad14)"))
    (pad 15 thru_hole oval (at 0 35.56 90) (size 2.3 1.6) (drill 0.8) (layers *.Cu *.Mask F.SilkS)
      (net 40 "Net-(U3-Pad15)"))
    (pad 16 thru_hole oval (at 15.24 35.56 90) (size 2.3 1.6) (drill 0.8) (layers *.Cu *.Mask F.SilkS)
      (net 41 "Net-(U3-Pad16)"))
    (pad 17 thru_hole oval (at 15.24 33.02 90) (size 2.3 1.6) (drill 0.8) (layers *.Cu *.Mask F.SilkS)
      (net 42 "Net-(U3-Pad17)"))
    (pad 18 thru_hole oval (at 15.24 30.48 90) (size 2.3 1.6) (drill 0.8) (layers *.Cu *.Mask F.SilkS)
      (net 43 "Net-(U3-Pad18)"))
    (pad 19 thru_hole oval (at 15.24 27.94 90) (size 2.3 1.6) (drill 0.8) (layers *.Cu *.Mask F.SilkS)
      (net 5 GND))
    (pad 20 thru_hole oval (at 15.24 25.4 90) (size 2.3 1.6) (drill 0.8) (layers *.Cu *.Mask F.SilkS)
      (net 24 "Net-(P3-Pad2)"))
    (pad 21 thru_hole oval (at 15.24 22.86 90) (size 2.3 1.6) (drill 0.8) (layers *.Cu *.Mask F.SilkS)
      (net 44 "Net-(U3-Pad21)"))
    (pad 22 thru_hole oval (at 15.24 20.32 90) (size 2.3 1.6) (drill 0.8) (layers *.Cu *.Mask F.SilkS)
      (net 17 "Net-(K3-Pad1)"))
    (pad 23 thru_hole oval (at 15.24 17.78 90) (size 2.3 1.6) (drill 0.8) (layers *.Cu *.Mask F.SilkS)
      (net 18 "Net-(K3-Pad2)"))
    (pad 24 thru_hole oval (at 15.24 15.24 90) (size 2.3 1.6) (drill 0.8) (layers *.Cu *.Mask F.SilkS)
      (net 19 "Net-(K3-Pad3)"))
    (pad 25 thru_hole oval (at 15.24 12.7 90) (size 2.3 1.6) (drill 0.8) (layers *.Cu *.Mask F.SilkS)
      (net 20 "Net-(K3-Pad4)"))
    (pad 26 thru_hole oval (at 15.24 10.16 90) (size 2.3 1.6) (drill 0.8) (layers *.Cu *.Mask F.SilkS)
      (net 21 "Net-(K3-Pad5)"))
    (pad 27 thru_hole oval (at 15.24 7.62 90) (size 2.3 1.6) (drill 0.8) (layers *.Cu *.Mask F.SilkS)
      (net 22 "Net-(K3-Pad6)"))
    (pad 28 thru_hole oval (at 15.24 5.08 90) (size 2.3 1.6) (drill 0.8) (layers *.Cu *.Mask F.SilkS)
      (net 23 "Net-(K3-Pad7)"))
    (pad 29 thru_hole oval (at 15.24 2.54 90) (size 2.3 1.6) (drill 0.8) (layers *.Cu *.Mask F.SilkS)
      (net 30 "Net-(R6-Pad1)"))
    (pad 30 thru_hole oval (at 15.24 0 90) (size 2.3 1.6) (drill 0.8) (layers *.Cu *.Mask F.SilkS)
      (net 31 "Net-(R7-Pad1)"))
    (model Housings_DIP.3dshapes/DIP-32_W15.24mm_LongPads.wrl
      (at (xyz 0 0 0))
      (scale (xyz 1 1 1))
      (rotate (xyz 0 0 0))
    )
  )

  (module Connect:bornier3 (layer F.Cu) (tedit 5CFFC4F5) (tstamp 5CFED0EC)
    (at 129.4765 58.3565)
    (descr "Bornier d'alimentation 3 pins")
    (tags DEV)
    (path /5CFA639C)
    (fp_text reference P1 (at -9.525 0.635 90) (layer F.SilkS)
      (effects (font (size 1 1) (thickness 0.15)))
    )
    (fp_text value VALVE (at 0.0635 -10.0965) (layer F.Fab)
      (effects (font (size 1 1) (thickness 0.15)))
    )
    (fp_line (start -7.62 3.81) (end -7.62 -3.81) (layer F.SilkS) (width 0.15))
    (fp_line (start 7.62 3.81) (end 7.62 -3.81) (layer F.SilkS) (width 0.15))
    (fp_line (start -7.62 2.54) (end 7.62 2.54) (layer F.SilkS) (width 0.15))
    (fp_line (start -7.62 -3.81) (end 7.62 -3.81) (layer F.SilkS) (width 0.15))
    (fp_line (start -7.62 3.81) (end 7.62 3.81) (layer F.SilkS) (width 0.15))
    (pad 1 thru_hole rect (at -5.08 0) (size 2.54 2.54) (drill 1.524) (layers *.Cu *.Mask F.SilkS)
      (net 16 "Net-(K2-PadO1)"))
    (pad 2 thru_hole circle (at 0 0) (size 2.54 2.54) (drill 1.524) (layers *.Cu *.Mask F.SilkS)
      (net 2 "Net-(C1-Pad2)"))
    (pad 3 thru_hole circle (at 5.08 0) (size 2.54 2.54) (drill 1.524) (layers *.Cu *.Mask F.SilkS)
      (net 13 "Net-(K1-PadO1)"))
    (model Connect.3dshapes/bornier3.wrl
      (at (xyz 0 0 0))
      (scale (xyz 1 1 1))
      (rotate (xyz 0 0 0))
    )
  )

  (module Wire_Pads:SolderWirePad_single_2-5mmDrill (layer F.Cu) (tedit 5CFF926C) (tstamp 5CFEDE54)
    (at 209.296 121.412 90)
    (fp_text reference "" (at 0 -5.08 90) (layer F.SilkS)
      (effects (font (size 1 1) (thickness 0.15)))
    )
    (fp_text value "" (at 1.27 5.08 90) (layer F.Fab)
      (effects (font (size 1 1) (thickness 0.15)))
    )
    (pad "" thru_hole circle (at 0 0 90) (size 5.99948 5.99948) (drill 2.49936) (layers *.Cu *.Mask F.SilkS))
  )

  (module Capacitors_ThroughHole:C_Rect_L18_W6_P15 (layer F.Cu) (tedit 5CFF872F) (tstamp 5CFF7ED2)
    (at 130.7465 77.4065)
    (descr "Film Capacitor Length 18mm x Width 6mm, Pitch 15mm")
    (tags Capacitor)
    (path /5CFA752E)
    (fp_text reference C1 (at 13.335 1.905 90) (layer F.SilkS)
      (effects (font (size 1 1) (thickness 0.15)))
    )
    (fp_text value "100nF 250V X2" (at 6.985 0) (layer F.Fab)
      (effects (font (size 1 1) (thickness 0.15)))
    )
    (fp_line (start -1.75 -3.25) (end 16.75 -3.25) (layer F.CrtYd) (width 0.05))
    (fp_line (start 16.75 -3.25) (end 16.75 3.25) (layer F.CrtYd) (width 0.05))
    (fp_line (start 16.75 3.25) (end -1.75 3.25) (layer F.CrtYd) (width 0.05))
    (fp_line (start -1.75 3.25) (end -1.75 -3.25) (layer F.CrtYd) (width 0.05))
    (fp_line (start -1.5 -3) (end 16.5 -3) (layer F.SilkS) (width 0.15))
    (fp_line (start 16.5 -3) (end 16.5 3) (layer F.SilkS) (width 0.15))
    (fp_line (start 16.5 3) (end -1.5 3) (layer F.SilkS) (width 0.15))
    (fp_line (start -1.5 3) (end -1.5 -3) (layer F.SilkS) (width 0.15))
    (pad 1 thru_hole rect (at 0 0) (size 1.4 1.4) (drill 0.8) (layers *.Cu *.Mask F.SilkS)
      (net 1 "Net-(C1-Pad1)"))
    (pad 2 thru_hole circle (at 15 0) (size 1.4 1.4) (drill 0.8) (layers *.Cu *.Mask F.SilkS)
      (net 2 "Net-(C1-Pad2)"))
    (model Capacitors_ThroughHole.3dshapes/C_Rect_L18_W6_P15.wrl
      (offset (xyz 7.500010287361144 0 0))
      (scale (xyz 1 1 1))
      (rotate (xyz 0 0 0))
    )
  )

  (module Capacitors_ThroughHole:C_Rect_L18_W6_P15 (layer F.Cu) (tedit 5CFF873A) (tstamp 5CFF7ED8)
    (at 130.7465 69.7865)
    (descr "Film Capacitor Length 18mm x Width 6mm, Pitch 15mm")
    (tags Capacitor)
    (path /5CFA7336)
    (fp_text reference C2 (at 13.335 1.905 90) (layer F.SilkS)
      (effects (font (size 1 1) (thickness 0.15)))
    )
    (fp_text value "100nF 250V X2" (at 6.985 0) (layer F.Fab)
      (effects (font (size 1 1) (thickness 0.15)))
    )
    (fp_line (start -1.75 -3.25) (end 16.75 -3.25) (layer F.CrtYd) (width 0.05))
    (fp_line (start 16.75 -3.25) (end 16.75 3.25) (layer F.CrtYd) (width 0.05))
    (fp_line (start 16.75 3.25) (end -1.75 3.25) (layer F.CrtYd) (width 0.05))
    (fp_line (start -1.75 3.25) (end -1.75 -3.25) (layer F.CrtYd) (width 0.05))
    (fp_line (start -1.5 -3) (end 16.5 -3) (layer F.SilkS) (width 0.15))
    (fp_line (start 16.5 -3) (end 16.5 3) (layer F.SilkS) (width 0.15))
    (fp_line (start 16.5 3) (end -1.5 3) (layer F.SilkS) (width 0.15))
    (fp_line (start -1.5 3) (end -1.5 -3) (layer F.SilkS) (width 0.15))
    (pad 1 thru_hole rect (at 0 0) (size 1.4 1.4) (drill 0.8) (layers *.Cu *.Mask F.SilkS)
      (net 3 "Net-(C2-Pad1)"))
    (pad 2 thru_hole circle (at 15 0) (size 1.4 1.4) (drill 0.8) (layers *.Cu *.Mask F.SilkS)
      (net 2 "Net-(C1-Pad2)"))
    (model Capacitors_ThroughHole.3dshapes/C_Rect_L18_W6_P15.wrl
      (offset (xyz 7.500010287361144 0 0))
      (scale (xyz 1 1 1))
      (rotate (xyz 0 0 0))
    )
  )

  (module myModules:ds3231-module-horz (layer F.Cu) (tedit 5CFF8DA6) (tstamp 5CFF8F42)
    (at 189.1665 90.1065 270)
    (descr DS3231-MUDULE-HORZ)
    (tags RTC)
    (path /5CFA28C5)
    (fp_text reference U2 (at 17.78 6.35 270) (layer F.SilkS)
      (effects (font (size 1 1) (thickness 0.15)))
    )
    (fp_text value DS3231 (at 17.145 8.89 270) (layer F.Fab)
      (effects (font (size 1 1) (thickness 0.15)))
    )
    (fp_circle (center 17.145 6.35) (end 17.145 -3.81) (layer F.SilkS) (width 0.15))
    (fp_circle (center 17.145 6.35) (end 17.145 -4.445) (layer F.SilkS) (width 0.15))
    (fp_line (start -1.905 -5.08) (end -1.905 17.78) (layer F.SilkS) (width 0.15))
    (fp_line (start -1.905 17.78) (end 36.195 17.78) (layer F.SilkS) (width 0.15))
    (fp_line (start 36.195 17.78) (end 36.195 -5.08) (layer F.SilkS) (width 0.15))
    (fp_line (start 36.195 -5.08) (end -1.905 -5.08) (layer F.SilkS) (width 0.15))
    (pad 1 thru_hole rect (at 0 0 270) (size 2.032 1.7272) (drill 1.016) (layers *.Cu *.Mask F.SilkS)
      (net 32 "Net-(U2-Pad1)"))
    (pad 2 thru_hole oval (at 0 2.54 270) (size 2.032 1.7272) (drill 1.016) (layers *.Cu *.Mask F.SilkS)
      (net 33 "Net-(U2-Pad2)"))
    (pad 3 thru_hole oval (at 0 5.08 270) (size 2.032 1.7272) (drill 1.016) (layers *.Cu *.Mask F.SilkS)
      (net 11 "Net-(DS1-Pad4)"))
    (pad 4 thru_hole oval (at 0 7.62 270) (size 2.032 1.7272) (drill 1.016) (layers *.Cu *.Mask F.SilkS)
      (net 10 "Net-(DS1-Pad3)"))
    (pad 5 thru_hole oval (at 0 10.16 270) (size 2.032 1.7272) (drill 1.016) (layers *.Cu *.Mask F.SilkS)
      (net 4 +5V))
    (pad 6 thru_hole oval (at 0 12.7 270) (size 2.032 1.7272) (drill 1.016) (layers *.Cu *.Mask F.SilkS)
      (net 5 GND))
    (model Pin_Headers.3dshapes/Pin_Header_Straight_1x06.wrl
      (offset (xyz 0 -6.349999904632568 0))
      (scale (xyz 1 1 1))
      (rotate (xyz 0 0 90))
    )
  )

  (module myCases:Kradex-Z-125 (layer F.Cu) (tedit 5CFF928D) (tstamp 5CFF90F1)
    (at 49.5935 133.4135 90)
    (fp_text reference REF** (at 44.45 13.335 90) (layer F.SilkS)
      (effects (font (size 1 1) (thickness 0.15)))
    )
    (fp_text value Kradex-Z-125 (at 45.085 9.525 90) (layer F.Fab)
      (effects (font (size 1 1) (thickness 0.15)))
    )
    (fp_circle (center 13.4493 176.3903) (end 13.4493 171.3865) (layer F.SilkS) (width 0.15))
    (fp_circle (center 76.327 176.3649) (end 76.327 171.3865) (layer F.SilkS) (width 0.15))
    (fp_circle (center 76.2889 13.4493) (end 76.2889 8.4582) (layer F.SilkS) (width 0.15))
    (fp_circle (center 13.4493 13.4366) (end 13.4493 8.4455) (layer F.SilkS) (width 0.15))
    (fp_circle (center 60.8203 177.927) (end 60.8203 174.9171) (layer F.SilkS) (width 0.15))
    (fp_circle (center 28.9306 177.927) (end 28.956 174.9171) (layer F.SilkS) (width 0.15))
    (fp_circle (center 60.8203 11.9253) (end 60.8203 8.9154) (layer F.SilkS) (width 0.15))
    (fp_circle (center 28.9306 11.9253) (end 28.9433 8.9154) (layer F.SilkS) (width 0.15))
    (fp_line (start 97.5995 178.3334) (end 97.5995 177.9524) (layer F.SilkS) (width 0.15))
    (fp_circle (center 77.8764 72.9488) (end 77.8764 69.9389) (layer F.SilkS) (width 0.15))
    (fp_circle (center 77.8764 116.9035) (end 77.8891 119.9007) (layer F.SilkS) (width 0.15))
    (fp_circle (center 11.8745 116.9162) (end 11.8745 113.919) (layer F.SilkS) (width 0.15))
    (fp_circle (center 11.8745 72.9488) (end 11.8745 69.9389) (layer F.SilkS) (width 0.15))
    (fp_circle (center 77.8764 159.8422) (end 77.8764 156.8323) (layer F.SilkS) (width 0.15))
    (fp_circle (center 77.8764 30.0101) (end 77.8764 27.0002) (layer F.SilkS) (width 0.15))
    (fp_circle (center 11.8745 159.8422) (end 11.8745 156.8323) (layer F.SilkS) (width 0.15))
    (fp_circle (center 11.8618 30.0228) (end 11.8745 27.0383) (layer F.SilkS) (width 0.15))
    (fp_line (start 2.8 187.15) (end 86.95 187.15) (layer F.SilkS) (width 0.15))
    (fp_line (start 2.8 2.8) (end 2.8 187.15) (layer F.SilkS) (width 0.15))
    (fp_line (start 86.95 2.8) (end 86.95 187.15) (layer F.SilkS) (width 0.15))
    (fp_line (start 2.8 2.8) (end 86.95 2.8) (layer F.SilkS) (width 0.15))
    (fp_line (start 0 0) (end 89.75 0) (layer F.SilkS) (width 0.15))
    (fp_line (start 89.75 0) (end 89.75 189.85) (layer F.SilkS) (width 0.15))
    (fp_line (start 89.75 189.85) (end 0 189.85) (layer F.SilkS) (width 0.15))
    (fp_line (start 0 189.85) (end 0 0) (layer F.SilkS) (width 0.15))
  )

  (module Pin_Headers:Pin_Header_Straight_1x03 (layer F.Cu) (tedit 5D06A560) (tstamp 5D06A547)
    (at 201.93 62.23 90)
    (descr "Through hole pin header")
    (tags "pin header")
    (path /5D04E042)
    (fp_text reference P4 (at 0 -5.1 90) (layer F.SilkS)
      (effects (font (size 1 1) (thickness 0.15)))
    )
    (fp_text value HUMIDITY-SENSOR (at 4.445 2.54 180) (layer F.Fab)
      (effects (font (size 1 1) (thickness 0.15)))
    )
    (fp_line (start -1.75 -1.75) (end -1.75 6.85) (layer F.CrtYd) (width 0.05))
    (fp_line (start 1.75 -1.75) (end 1.75 6.85) (layer F.CrtYd) (width 0.05))
    (fp_line (start -1.75 -1.75) (end 1.75 -1.75) (layer F.CrtYd) (width 0.05))
    (fp_line (start -1.75 6.85) (end 1.75 6.85) (layer F.CrtYd) (width 0.05))
    (fp_line (start -1.27 1.27) (end -1.27 6.35) (layer F.SilkS) (width 0.15))
    (fp_line (start -1.27 6.35) (end 1.27 6.35) (layer F.SilkS) (width 0.15))
    (fp_line (start 1.27 6.35) (end 1.27 1.27) (layer F.SilkS) (width 0.15))
    (fp_line (start 1.55 -1.55) (end 1.55 0) (layer F.SilkS) (width 0.15))
    (fp_line (start 1.27 1.27) (end -1.27 1.27) (layer F.SilkS) (width 0.15))
    (fp_line (start -1.55 0) (end -1.55 -1.55) (layer F.SilkS) (width 0.15))
    (fp_line (start -1.55 -1.55) (end 1.55 -1.55) (layer F.SilkS) (width 0.15))
    (pad 1 thru_hole rect (at 0 0 90) (size 2.032 1.7272) (drill 1.016) (layers *.Cu *.Mask F.SilkS)
      (net 4 +5V))
    (pad 2 thru_hole oval (at 0 2.54 90) (size 2.032 1.7272) (drill 1.016) (layers *.Cu *.Mask F.SilkS)
      (net 25 "Net-(P4-Pad2)"))
    (pad 3 thru_hole oval (at 0 5.08 90) (size 2.032 1.7272) (drill 1.016) (layers *.Cu *.Mask F.SilkS)
      (net 5 GND))
    (model Pin_Headers.3dshapes/Pin_Header_Straight_1x03.wrl
      (offset (xyz 0 -2.539999961853027 0))
      (scale (xyz 1 1 1))
      (rotate (xyz 0 0 90))
    )
  )

  (gr_line (start 73.66 49.53) (end 215.265 49.53) (layer Edge.Cuts) (width 0.15) (tstamp 638477FB))
  (gr_line (start 73.66 127) (end 73.66 49.53) (layer Edge.Cuts) (width 0.15))
  (gr_line (start 215.265 127) (end 73.66 127) (layer Edge.Cuts) (width 0.15))
  (gr_line (start 215.265 49.53) (end 215.265 127) (layer Edge.Cuts) (width 0.15))
  (gr_text KEYBOARD (at 99.314 122.809) (layer Dwgs.User)
    (effects (font (size 1.5 1.5) (thickness 0.3)))
  )
  (gr_text DISPLAY (at 218.059 87.249 90) (layer Dwgs.User)
    (effects (font (size 1.5 1.5) (thickness 0.3)))
  )
  (gr_line (start 118.999 55.499) (end 68.834 55.499) (angle 90) (layer Dwgs.User) (width 0.2))
  (gr_line (start 118.999 125.349) (end 118.999 55.499) (angle 90) (layer Dwgs.User) (width 0.2))
  (gr_line (start 68.834 125.349) (end 118.999 125.349) (angle 90) (layer Dwgs.User) (width 0.2))
  (gr_line (start 68.834 55.499) (end 68.834 125.349) (angle 90) (layer Dwgs.User) (width 0.2))
  (gr_line (start 219.964 59.309) (end 121.539 59.309) (angle 90) (layer Dwgs.User) (width 0.2))
  (gr_line (start 219.964 118.999) (end 219.964 59.309) (angle 90) (layer Dwgs.User) (width 0.2))
  (gr_line (start 121.539 118.999) (end 219.964 118.999) (angle 90) (layer Dwgs.User) (width 0.2))
  (gr_line (start 121.539 59.309) (end 121.539 118.999) (angle 90) (layer Dwgs.User) (width 0.2))
  (gr_text SPRINKLER-TIMER (at 184.0865 118.0465 180) (layer B.Cu)
    (effects (font (size 1.5 1.5) (thickness 0.3)) (justify mirror))
  )

  (segment (start 125.330323 78.751206) (end 129.401794 78.751206) (width 1) (layer B.Cu) (net 1))
  (segment (start 129.401794 78.751206) (end 130.7465 77.4065) (width 1) (layer B.Cu) (net 1) (tstamp 5CFF88AC))
  (segment (start 125.330323 78.751206) (end 124.3965 79.3115) (width 1) (layer B.Cu) (net 1) (tstamp 5CFF88AA) (status 20))
  (segment (start 98.9965 55.1815) (end 116.7765 55.1815) (width 1) (layer B.Cu) (net 2))
  (segment (start 116.7765 55.1815) (end 118.6815 53.2765) (width 1) (layer B.Cu) (net 2) (tstamp 5CFFC0D7))
  (segment (start 145.7465 77.4065) (end 145.7465 69.7865) (width 1) (layer B.Cu) (net 2))
  (segment (start 129.4765 51.3715) (end 120.5865 51.3715) (width 1) (layer B.Cu) (net 2))
  (segment (start 88.8365 57.0865) (end 88.8365 62.1665) (width 1) (layer B.Cu) (net 2) (tstamp 5CFF8115))
  (segment (start 90.7415 55.1815) (end 88.8365 57.0865) (width 1) (layer B.Cu) (net 2) (tstamp 5CFF8114))
  (segment (start 98.9965 55.1815) (end 90.7415 55.1815) (width 1) (layer B.Cu) (net 2) (tstamp 5CFF8111))
  (segment (start 120.5865 51.3715) (end 118.6815 53.2765) (width 1) (layer B.Cu) (net 2) (tstamp 5CFF8100))
  (segment (start 129.4765 58.3565) (end 129.4765 51.3715) (width 1) (layer B.Cu) (net 2) (status 10))
  (segment (start 145.8265 59.4665) (end 145.8265 65.8165) (width 1) (layer B.Cu) (net 2) (tstamp 5CFF8040))
  (segment (start 145.8265 73.5965) (end 145.8265 77.4065) (width 1) (layer B.Cu) (net 2) (status 20))
  (segment (start 145.8265 65.8165) (end 145.8265 73.5965) (width 1) (layer B.Cu) (net 2) (tstamp 5CFED13D))
  (segment (start 129.4765 51.3715) (end 137.7315 51.3715) (width 1) (layer B.Cu) (net 2) (tstamp 5CFF804D))
  (segment (start 137.7315 51.3715) (end 145.8265 59.4665) (width 1) (layer B.Cu) (net 2) (tstamp 5CFF8033))
  (segment (start 81.2165 77.4065) (end 81.2165 69.7865) (width 1) (layer B.Cu) (net 2))
  (segment (start 81.2165 69.7865) (end 88.8365 62.1665) (width 1) (layer B.Cu) (net 2) (tstamp 5CFEDDAC))
  (segment (start 129.4765 58.3565) (end 129.4765 58.3565) (width 1) (layer B.Cu) (net 2) (status 30))
  (segment (start 124.3965 72.3265) (end 128.2065 72.3265) (width 1) (layer B.Cu) (net 3))
  (segment (start 128.2065 72.3265) (end 130.7465 69.7865) (width 1) (layer B.Cu) (net 3) (tstamp 5CFF88AF))
  (via (at 187.8965 66.04) (size 1.5) (drill 0.4) (layers F.Cu B.Cu) (net 4))
  (segment (start 201.93 62.23) (end 201.93 65.405) (width 0.5) (layer B.Cu) (net 4) (tstamp 5D06A56B) (status 400000))
  (segment (start 201.295 66.04) (end 201.93 65.405) (width 0.5) (layer B.Cu) (net 4) (tstamp 5D06A56A))
  (segment (start 198.12 66.04) (end 201.295 66.04) (width 0.5) (layer B.Cu) (net 4) (tstamp 5D06A569))
  (via (at 198.12 66.04) (size 1.5) (drill 0.4) (layers F.Cu B.Cu) (net 4))
  (segment (start 198.12 66.04) (end 187.8965 66.04) (width 0.5) (layer F.Cu) (net 4) (tstamp 5D06A566))
  (segment (start 126.4285 99.3775) (end 126.4285 104.20044) (width 0.5) (layer B.Cu) (net 4))
  (segment (start 126.4285 104.20044) (end 127.63552 105.40746) (width 0.5) (layer B.Cu) (net 4) (tstamp 5CFFC228))
  (segment (start 108.6485 99.3775) (end 108.6485 104.20044) (width 0.5) (layer B.Cu) (net 4))
  (segment (start 108.6485 104.20044) (end 109.85552 105.40746) (width 0.5) (layer B.Cu) (net 4) (tstamp 5CFFC221))
  (segment (start 179.0065 92.6465) (end 179.0065 90.1065) (width 0.5) (layer B.Cu) (net 4))
  (segment (start 173.9265 92.6465) (end 173.9265 89.4715) (width 0.5) (layer B.Cu) (net 4))
  (segment (start 173.9265 89.4715) (end 175.8315 87.5665) (width 0.5) (layer B.Cu) (net 4) (tstamp 5CFF8F54))
  (segment (start 175.8315 87.5665) (end 177.7365 87.5665) (width 0.5) (layer B.Cu) (net 4) (tstamp 5CFF8F55))
  (segment (start 177.7365 87.5665) (end 179.0065 88.8365) (width 0.5) (layer B.Cu) (net 4) (tstamp 5CFF8F56))
  (segment (start 179.0065 88.8365) (end 179.0065 90.1065) (width 0.5) (layer B.Cu) (net 4) (tstamp 5CFF8F57))
  (segment (start 126.9365 96.4565) (end 127.5715 95.8215) (width 0.5) (layer B.Cu) (net 4))
  (segment (start 143.4465 95.8215) (end 144.0815 96.4565) (width 0.5) (layer B.Cu) (net 4) (tstamp 5CFF8600))
  (segment (start 127.5715 95.8215) (end 143.4465 95.8215) (width 0.5) (layer B.Cu) (net 4) (tstamp 5CFF85FF))
  (segment (start 90.1065 118.0465) (end 153.6065 118.0465) (width 0.5) (layer B.Cu) (net 4))
  (segment (start 153.6065 118.0465) (end 165.0365 106.6165) (width 0.5) (layer B.Cu) (net 4) (tstamp 5CFEE3BD))
  (segment (start 165.0365 106.6165) (end 192.9765 106.6165) (width 0.5) (layer B.Cu) (net 4) (tstamp 5CFEE359))
  (segment (start 182.8165 101.5365) (end 179.0065 97.7265) (width 0.5) (layer B.Cu) (net 4))
  (segment (start 88.8365 115.5065) (end 88.8365 116.7765) (width 0.5) (layer B.Cu) (net 4))
  (segment (start 88.8365 116.7765) (end 90.1065 118.0465) (width 0.5) (layer B.Cu) (net 4) (tstamp 5CFEDF1B))
  (segment (start 196.7865 102.8065) (end 199.3265 102.8065) (width 0.5) (layer B.Cu) (net 4) (tstamp 5CFEDF27))
  (segment (start 192.9765 106.6165) (end 196.7865 102.8065) (width 0.5) (layer B.Cu) (net 4) (tstamp 5CFEE366))
  (segment (start 209.4865 96.4565) (end 208.2165 95.1865) (width 0.5) (layer B.Cu) (net 4))
  (segment (start 191.7065 90.1065) (end 191.7065 96.4565) (width 0.5) (layer B.Cu) (net 4))
  (segment (start 191.7065 96.4565) (end 192.9765 97.7265) (width 0.5) (layer B.Cu) (net 4) (tstamp 5CFEDB62))
  (segment (start 192.9765 97.7265) (end 203.1365 97.7265) (width 0.5) (layer B.Cu) (net 4) (tstamp 5CFEDB64))
  (segment (start 203.1365 97.7265) (end 205.6765 95.1865) (width 0.5) (layer B.Cu) (net 4) (tstamp 5CFEDB65))
  (segment (start 205.6765 95.1865) (end 208.2165 95.1865) (width 0.5) (layer B.Cu) (net 4) (tstamp 5CFEDB6A))
  (segment (start 199.3265 101.5365) (end 204.4065 101.5365) (width 0.5) (layer B.Cu) (net 4))
  (segment (start 204.4065 101.5365) (end 205.6765 102.8065) (width 0.5) (layer B.Cu) (net 4) (tstamp 5CFEDB43))
  (segment (start 182.8165 101.5365) (end 199.3265 101.5365) (width 0.5) (layer B.Cu) (net 4) (tstamp 5CFEDF32))
  (segment (start 199.3265 101.5365) (end 199.3265 102.8065) (width 0.5) (layer B.Cu) (net 4) (tstamp 5CFEDB3B))
  (segment (start 206.9465 102.8065) (end 208.2165 102.8065) (width 0.5) (layer B.Cu) (net 4))
  (segment (start 209.4865 101.5365) (end 209.4865 96.4565) (width 0.5) (layer B.Cu) (net 4) (tstamp 5CFED9C8))
  (segment (start 208.2165 102.8065) (end 209.4865 101.5365) (width 0.5) (layer B.Cu) (net 4) (tstamp 5CFED9C6))
  (segment (start 206.9465 102.8065) (end 205.6765 102.8065) (width 0.5) (layer B.Cu) (net 4))
  (segment (start 191.7065 90.1065) (end 191.7065 85.0265) (width 0.5) (layer B.Cu) (net 4))
  (segment (start 179.0065 93.9165) (end 179.0065 92.6465) (width 0.5) (layer B.Cu) (net 4))
  (segment (start 148.5265 89.4715) (end 145.3515 92.6465) (width 0.5) (layer B.Cu) (net 4) (tstamp 5CFED73E))
  (segment (start 159.3215 89.4715) (end 148.5265 89.4715) (width 0.5) (layer B.Cu) (net 4) (tstamp 5CFED73D))
  (segment (start 161.8615 92.0115) (end 159.3215 89.4715) (width 0.5) (layer B.Cu) (net 4) (tstamp 5CFED73B))
  (segment (start 161.8615 100.9015) (end 161.8615 92.0115) (width 0.5) (layer B.Cu) (net 4) (tstamp 5CFED739))
  (segment (start 165.0365 104.0765) (end 161.8615 100.9015) (width 0.5) (layer B.Cu) (net 4) (tstamp 5CFED733))
  (segment (start 170.1165 104.0765) (end 165.0365 104.0765) (width 0.5) (layer B.Cu) (net 4) (tstamp 5CFED731))
  (segment (start 173.9265 100.2665) (end 170.1165 104.0765) (width 0.5) (layer B.Cu) (net 4) (tstamp 5CFED72D))
  (segment (start 173.9265 92.6465) (end 173.9265 100.2665) (width 0.5) (layer B.Cu) (net 4) (tstamp 5CFED72C))
  (segment (start 144.7165 93.2815) (end 145.3515 92.6465) (width 0.5) (layer B.Cu) (net 4))
  (segment (start 114.8715 93.2815) (end 144.7165 93.2815) (width 0.5) (layer B.Cu) (net 4) (tstamp 5CFED1E1))
  (segment (start 108.7755 99.3775) (end 114.8715 93.2815) (width 0.5) (layer B.Cu) (net 4) (tstamp 5CFED1DE))
  (segment (start 126.4285 99.3775) (end 126.4285 96.9645) (width 0.5) (layer B.Cu) (net 4))
  (via (at 145.3515 92.6465) (size 1.5) (drill 0.4) (layers F.Cu B.Cu) (net 4))
  (segment (start 144.0815 96.4565) (end 145.3515 97.7265) (width 0.5) (layer B.Cu) (net 4) (tstamp 5CFED6F1))
  (via (at 145.3515 97.7265) (size 1.5) (drill 0.4) (layers F.Cu B.Cu) (net 4))
  (segment (start 145.3515 97.7265) (end 145.3515 92.6465) (width 0.5) (layer F.Cu) (net 4) (tstamp 5CFED6FC))
  (segment (start 126.4285 96.9645) (end 126.9365 96.4565) (width 0.5) (layer B.Cu) (net 4) (tstamp 5CFED6E7))
  (segment (start 191.7065 62.1665) (end 189.1665 62.1665) (width 0.5) (layer B.Cu) (net 4))
  (segment (start 191.7065 78.6765) (end 191.7065 85.0265) (width 0.5) (layer B.Cu) (net 4) (tstamp 5CFED5C9))
  (segment (start 187.8965 74.8665) (end 191.7065 78.6765) (width 0.5) (layer B.Cu) (net 4) (tstamp 5CFED5C7))
  (segment (start 187.8965 63.4365) (end 187.8965 66.04) (width 0.5) (layer B.Cu) (net 4) (tstamp 5CFED5C6))
  (segment (start 187.8965 66.04) (end 187.8965 74.8665) (width 0.5) (layer B.Cu) (net 4) (tstamp 5D06A563))
  (segment (start 189.1665 62.1665) (end 187.8965 63.4365) (width 0.5) (layer B.Cu) (net 4) (tstamp 5CFED5C5))
  (segment (start 179.0065 93.9165) (end 179.0065 97.7265) (width 0.5) (layer B.Cu) (net 4) (status 10))
  (segment (start 109.347 104.89894) (end 109.85552 105.40746) (width 0.5) (layer B.Cu) (net 4) (tstamp 5CFED425) (status 30))
  (segment (start 127.127 104.89894) (end 127.63552 105.40746) (width 0.5) (layer B.Cu) (net 4) (tstamp 5CFED41E) (status 30))
  (segment (start 108.6485 99.3775) (end 108.7755 99.3775) (width 0.5) (layer B.Cu) (net 4))
  (segment (start 207.01 62.23) (end 207.01 69.215) (width 0.5) (layer B.Cu) (net 5) (status 400000))
  (segment (start 198.8185 77.4065) (end 192.9765 77.4065) (width 0.5) (layer B.Cu) (net 5) (tstamp 5D06A55C))
  (segment (start 207.01 69.215) (end 198.8185 77.4065) (width 0.5) (layer B.Cu) (net 5) (tstamp 5D06A55A))
  (segment (start 189.865 73.025) (end 191.643 73.025) (width 0.5) (layer B.Cu) (net 5))
  (segment (start 191.643 73.025) (end 191.7065 72.9615) (width 0.5) (layer B.Cu) (net 5) (tstamp 5CFFC18B))
  (via (at 189.865 73.025) (size 1.5) (drill 0.4) (layers F.Cu B.Cu) (net 5))
  (segment (start 189.865 73.025) (end 185.42 73.025) (width 0.5) (layer F.Cu) (net 5) (tstamp 5CFF93B9))
  (via (at 185.42 73.025) (size 1.5) (drill 0.4) (layers F.Cu B.Cu) (net 5))
  (segment (start 185.42 73.025) (end 182.8165 72.9615) (width 0.5) (layer B.Cu) (net 5) (tstamp 5CFF93C0))
  (segment (start 172.974 58.3565) (end 168.8465 58.3565) (width 0.5) (layer B.Cu) (net 5))
  (segment (start 165.989 55.499) (end 165.989 54.229) (width 0.5) (layer B.Cu) (net 5) (tstamp 5CFF9EE7))
  (segment (start 168.8465 58.3565) (end 165.989 55.499) (width 0.5) (layer B.Cu) (net 5) (tstamp 5CFF9EE5))
  (segment (start 172.974 54.229) (end 172.974 58.3565) (width 0.5) (layer B.Cu) (net 5))
  (segment (start 172.974 58.3565) (end 172.974 58.166) (width 0.5) (layer B.Cu) (net 5) (tstamp 5CFF9EDC))
  (segment (start 172.974 58.166) (end 172.974 58.3565) (width 0.5) (layer B.Cu) (net 5) (tstamp 5CFF9EDE))
  (segment (start 176.4665 90.1065) (end 176.4665 93.9165) (width 0.5) (layer B.Cu) (net 5))
  (segment (start 176.4665 100.2665) (end 171.3865 105.3465) (width 0.5) (layer B.Cu) (net 5) (tstamp 5CFED637))
  (segment (start 171.3865 105.3465) (end 159.9565 105.3465) (width 0.5) (layer B.Cu) (net 5) (tstamp 5CFED63D))
  (segment (start 176.4665 93.9165) (end 176.4665 100.2665) (width 0.5) (layer B.Cu) (net 5))
  (segment (start 83.7565 119.3165) (end 154.8765 119.3165) (width 0.5) (layer B.Cu) (net 5))
  (segment (start 96.4565 116.7765) (end 152.3365 116.7765) (width 0.5) (layer B.Cu) (net 5))
  (segment (start 154.8765 119.3165) (end 165.0365 109.1565) (width 0.5) (layer B.Cu) (net 5) (tstamp 5CFEE3C6))
  (segment (start 166.3065 107.8865) (end 199.2465 107.8865) (width 0.5) (layer B.Cu) (net 5) (tstamp 5CFEE36B))
  (segment (start 165.0365 109.1565) (end 166.3065 107.8865) (width 0.5) (layer B.Cu) (net 5) (tstamp 5CFEE36A))
  (segment (start 199.2465 107.8865) (end 199.3265 107.8065) (width 0.5) (layer B.Cu) (net 5) (tstamp 5CFEE36C))
  (segment (start 93.9165 114.2365) (end 96.4565 116.7765) (width 0.5) (layer B.Cu) (net 5))
  (segment (start 152.3365 116.7765) (end 154.8765 114.2365) (width 0.5) (layer B.Cu) (net 5) (tstamp 5CFEE3B1))
  (segment (start 159.9565 105.3465) (end 159.9565 109.1565) (width 0.5) (layer B.Cu) (net 5))
  (segment (start 81.2165 112.9665) (end 81.2165 115.5065) (width 0.5) (layer B.Cu) (net 5) (tstamp 5CFEDF14))
  (segment (start 82.4865 111.6965) (end 81.2165 112.9665) (width 0.5) (layer B.Cu) (net 5) (tstamp 5CFEDF13))
  (segment (start 91.3765 111.6965) (end 82.4865 111.6965) (width 0.5) (layer B.Cu) (net 5) (tstamp 5CFEDF11))
  (segment (start 93.9165 114.2365) (end 91.3765 111.6965) (width 0.5) (layer B.Cu) (net 5) (tstamp 5CFEDF0E))
  (segment (start 159.9565 109.1565) (end 154.8765 114.2365) (width 0.5) (layer B.Cu) (net 5) (tstamp 5CFEDEFF))
  (segment (start 81.2165 115.5065) (end 81.2165 116.7765) (width 0.5) (layer B.Cu) (net 5))
  (segment (start 81.2165 116.7765) (end 83.7565 119.3165) (width 0.5) (layer B.Cu) (net 5) (tstamp 5CFEDDCC))
  (segment (start 209.4865 104.0765) (end 210.7565 102.8065) (width 0.5) (layer B.Cu) (net 5))
  (segment (start 206.9465 90.1065) (end 204.4065 90.1065) (width 0.5) (layer B.Cu) (net 5) (tstamp 5CFED9C2))
  (segment (start 210.7565 93.9165) (end 206.9465 90.1065) (width 0.5) (layer B.Cu) (net 5) (tstamp 5CFED9C0))
  (segment (start 210.7565 102.8065) (end 210.7565 93.9165) (width 0.5) (layer B.Cu) (net 5) (tstamp 5CFED9BF))
  (segment (start 206.9465 105.3465) (end 208.2165 105.3465) (width 0.5) (layer B.Cu) (net 5))
  (segment (start 204.4065 90.1065) (end 201.8665 90.1065) (width 0.5) (layer B.Cu) (net 5) (tstamp 5CFED9A5))
  (segment (start 208.2165 105.3465) (end 209.4865 104.0765) (width 0.5) (layer B.Cu) (net 5) (tstamp 5CFED99F))
  (segment (start 199.3265 107.8065) (end 204.4865 107.8065) (width 0.5) (layer B.Cu) (net 5))
  (segment (start 204.4865 107.8065) (end 206.9465 105.3465) (width 0.5) (layer B.Cu) (net 5) (tstamp 5CFED995))
  (segment (start 196.7865 59.6265) (end 196.7865 62.1665) (width 0.5) (layer B.Cu) (net 5) (tstamp 5CFED94B))
  (segment (start 195.5165 58.3565) (end 196.7865 59.6265) (width 0.5) (layer B.Cu) (net 5) (tstamp 5CFED94A))
  (segment (start 172.974 58.3565) (end 195.5165 58.3565) (width 0.5) (layer B.Cu) (net 5) (tstamp 5CFF9EDF))
  (segment (start 196.7065 90.1065) (end 201.8665 90.1065) (width 0.5) (layer B.Cu) (net 5))
  (segment (start 201.8665 83.7565) (end 200.5965 82.4865) (width 0.5) (layer B.Cu) (net 5))
  (segment (start 191.7065 76.1365) (end 191.7065 72.9615) (width 0.5) (layer B.Cu) (net 5) (tstamp 5CFED68D))
  (segment (start 191.7065 72.9615) (end 191.7065 69.7865) (width 0.5) (layer B.Cu) (net 5) (tstamp 5CFF93B5))
  (segment (start 192.9765 77.4065) (end 191.7065 76.1365) (width 0.5) (layer B.Cu) (net 5) (tstamp 5CFED68C))
  (segment (start 192.9765 81.2165) (end 192.9765 77.4065) (width 0.5) (layer B.Cu) (net 5) (tstamp 5CFED68B))
  (segment (start 194.2465 82.4865) (end 192.9765 81.2165) (width 0.5) (layer B.Cu) (net 5) (tstamp 5CFED68A))
  (segment (start 200.5965 82.4865) (end 194.2465 82.4865) (width 0.5) (layer B.Cu) (net 5) (tstamp 5CFED689))
  (segment (start 201.8665 88.8365) (end 201.8665 83.7565) (width 0.5) (layer B.Cu) (net 5) (tstamp 5CFED5B1))
  (segment (start 201.8665 90.1065) (end 201.8665 88.8365) (width 0.5) (layer B.Cu) (net 5))
  (segment (start 196.7865 64.7065) (end 196.7865 62.1665) (width 0.5) (layer B.Cu) (net 5) (tstamp 5CFED5BA))
  (segment (start 191.7065 69.7865) (end 191.7065 67.2465) (width 0.5) (layer B.Cu) (net 5))
  (segment (start 191.7065 67.2465) (end 192.9765 65.9765) (width 0.5) (layer B.Cu) (net 5) (tstamp 5CFED5B7))
  (segment (start 192.9765 65.9765) (end 195.5165 65.9765) (width 0.5) (layer B.Cu) (net 5) (tstamp 5CFED5B8))
  (segment (start 195.5165 65.9765) (end 196.7865 64.7065) (width 0.5) (layer B.Cu) (net 5) (tstamp 5CFED5B9))
  (segment (start 159.9565 102.8065) (end 159.9565 105.3465) (width 0.5) (layer B.Cu) (net 5))
  (segment (start 153.6065 101.5365) (end 153.6065 100.2665) (width 0.5) (layer B.Cu) (net 5))
  (segment (start 154.8765 98.9965) (end 159.9565 98.9965) (width 0.5) (layer B.Cu) (net 5) (tstamp 5CFED469))
  (segment (start 153.6065 100.2665) (end 154.8765 98.9965) (width 0.5) (layer B.Cu) (net 5) (tstamp 5CFED468))
  (segment (start 153.6065 95.1865) (end 153.6065 92.6465) (width 0.5) (layer B.Cu) (net 5))
  (segment (start 159.9565 92.6465) (end 159.9565 98.9965) (width 0.5) (layer B.Cu) (net 5) (tstamp 5CFED461))
  (segment (start 159.9565 98.9965) (end 159.9565 102.8065) (width 0.5) (layer B.Cu) (net 5) (tstamp 5CFED46C))
  (segment (start 158.6865 91.3765) (end 159.9565 92.6465) (width 0.5) (layer B.Cu) (net 5) (tstamp 5CFED460))
  (segment (start 154.8765 91.3765) (end 158.6865 91.3765) (width 0.5) (layer B.Cu) (net 5) (tstamp 5CFED45F))
  (segment (start 153.6065 92.6465) (end 154.8765 91.3765) (width 0.5) (layer B.Cu) (net 5) (tstamp 5CFED45E))
  (segment (start 138.4935 99.3775) (end 138.4935 104.70948) (width 0.5) (layer B.Cu) (net 6))
  (segment (start 138.4935 104.70948) (end 137.79552 105.40746) (width 0.5) (layer B.Cu) (net 6) (tstamp 5CFFC22B))
  (segment (start 148.5265 101.5365) (end 140.6525 101.5365) (width 0.5) (layer B.Cu) (net 6))
  (segment (start 140.6525 101.5365) (end 138.4935 99.3775) (width 0.5) (layer B.Cu) (net 6) (tstamp 5CFED1D2))
  (segment (start 120.7135 99.3775) (end 120.7135 104.70948) (width 0.5) (layer B.Cu) (net 7))
  (segment (start 120.7135 104.70948) (end 120.01552 105.40746) (width 0.5) (layer B.Cu) (net 7) (tstamp 5CFFC224))
  (segment (start 120.7135 99.3775) (end 120.7135 105.21748) (width 0.5) (layer B.Cu) (net 7))
  (segment (start 145.3515 95.1865) (end 144.7165 94.5515) (width 0.5) (layer B.Cu) (net 7))
  (segment (start 125.5395 94.5515) (end 124.9045 95.1865) (width 0.5) (layer B.Cu) (net 7) (tstamp 5CFF85F7))
  (segment (start 144.7165 94.5515) (end 125.5395 94.5515) (width 0.5) (layer B.Cu) (net 7) (tstamp 5CFF85F6))
  (segment (start 148.5265 95.1865) (end 145.3515 95.1865) (width 0.5) (layer B.Cu) (net 7))
  (segment (start 124.9045 95.1865) (end 120.7135 99.3775) (width 0.5) (layer B.Cu) (net 7) (tstamp 5CFED1D6))
  (segment (start 168.529 54.229) (end 168.529 52.959) (width 0.5) (layer B.Cu) (net 8))
  (segment (start 153.6065 73.5965) (end 153.6065 72.3265) (width 0.5) (layer B.Cu) (net 8) (tstamp 5CFF9F06))
  (segment (start 154.94 74.93) (end 153.6065 73.5965) (width 0.5) (layer B.Cu) (net 8) (tstamp 5CFF9F05))
  (segment (start 158.75 74.93) (end 154.94 74.93) (width 0.5) (layer B.Cu) (net 8) (tstamp 5CFF9F03))
  (segment (start 161.29 72.39) (end 158.75 74.93) (width 0.5) (layer B.Cu) (net 8) (tstamp 5CFF9F02))
  (segment (start 161.29 54.61) (end 161.29 72.39) (width 0.5) (layer B.Cu) (net 8) (tstamp 5CFF9F00))
  (segment (start 163.83 52.07) (end 161.29 54.61) (width 0.5) (layer B.Cu) (net 8) (tstamp 5CFF9EFE))
  (segment (start 167.64 52.07) (end 163.83 52.07) (width 0.5) (layer B.Cu) (net 8) (tstamp 5CFF9EFD))
  (segment (start 168.529 52.959) (end 167.64 52.07) (width 0.5) (layer B.Cu) (net 8) (tstamp 5CFF9EFC))
  (segment (start 159.9565 62.23) (end 159.9565 54.0385) (width 0.5) (layer B.Cu) (net 9))
  (segment (start 175.514 52.959) (end 175.514 54.229) (width 0.5) (layer B.Cu) (net 9) (tstamp 5CFF9EF9))
  (segment (start 173.355 50.8) (end 175.514 52.959) (width 0.5) (layer B.Cu) (net 9) (tstamp 5CFF9EF8))
  (segment (start 163.195 50.8) (end 173.355 50.8) (width 0.5) (layer B.Cu) (net 9) (tstamp 5CFF9EF6))
  (segment (start 159.9565 54.0385) (end 163.195 50.8) (width 0.5) (layer B.Cu) (net 9) (tstamp 5CFF9EF4))
  (segment (start 159.9565 62.1665) (end 159.9565 62.23) (width 0.5) (layer B.Cu) (net 9))
  (segment (start 159.9565 62.23) (end 159.9565 69.7865) (width 0.5) (layer B.Cu) (net 9) (tstamp 5CFF9EF2))
  (segment (start 159.9565 69.7865) (end 157.4165 72.3265) (width 0.5) (layer B.Cu) (net 9) (tstamp 5CFED940))
  (segment (start 181.5465 90.1065) (end 181.5465 85.0265) (width 0.5) (layer B.Cu) (net 10))
  (segment (start 181.5465 90.1065) (end 181.5465 93.9165) (width 0.5) (layer B.Cu) (net 10))
  (segment (start 184.0865 100.2665) (end 181.5465 97.7265) (width 0.5) (layer B.Cu) (net 10) (tstamp 5CFED590))
  (segment (start 181.5465 97.7265) (end 181.5465 93.9165) (width 0.5) (layer B.Cu) (net 10) (tstamp 5CFED592))
  (segment (start 201.8665 100.2665) (end 184.0865 100.2665) (width 0.5) (layer B.Cu) (net 10))
  (segment (start 201.8665 100.2665) (end 206.9465 100.2665) (width 0.5) (layer B.Cu) (net 10))
  (segment (start 184.0865 90.1065) (end 184.0865 93.9165) (width 0.5) (layer B.Cu) (net 11))
  (segment (start 184.0865 85.0265) (end 184.0865 90.1065) (width 0.5) (layer B.Cu) (net 11))
  (segment (start 184.0865 96.4565) (end 184.0865 97.7265) (width 0.5) (layer B.Cu) (net 11))
  (segment (start 184.0865 96.4565) (end 184.0865 93.9165) (width 0.5) (layer B.Cu) (net 11) (tstamp 5CFED597))
  (segment (start 206.9465 97.7265) (end 205.6765 97.7265) (width 0.5) (layer B.Cu) (net 11))
  (segment (start 184.0865 97.7265) (end 185.3565 98.9965) (width 0.5) (layer B.Cu) (net 11) (tstamp 5CFEDB57))
  (segment (start 185.3565 98.9965) (end 204.4065 98.9965) (width 0.5) (layer B.Cu) (net 11) (tstamp 5CFEDB59))
  (segment (start 204.4065 98.9965) (end 205.6765 97.7265) (width 0.5) (layer B.Cu) (net 11) (tstamp 5CFEDB5B))
  (segment (start 184.0865 93.9165) (end 184.0865 93.9165) (width 0.5) (layer B.Cu) (net 11) (status 10))
  (segment (start 114.2365 72.3265) (end 118.0465 72.3265) (width 1) (layer B.Cu) (net 13) (status 10))
  (segment (start 118.0465 72.3265) (end 125.6665 64.7065) (width 1) (layer B.Cu) (net 13) (tstamp 5CFF818E))
  (segment (start 134.5565 58.3565) (end 134.5565 64.7065) (width 1) (layer B.Cu) (net 13) (status 10))
  (segment (start 125.6665 64.7065) (end 134.5565 64.7065) (width 1) (layer B.Cu) (net 13) (tstamp 5CFF8191))
  (segment (start 134.5565 64.7065) (end 136.4615 64.7065) (width 1) (layer B.Cu) (net 13) (tstamp 5CFF80C9))
  (segment (start 138.4935 66.7385) (end 138.4935 87.1855) (width 1) (layer B.Cu) (net 13) (tstamp 5CFF8004))
  (segment (start 136.4615 64.7065) (end 138.4935 66.7385) (width 1) (layer B.Cu) (net 13) (tstamp 5CFF8003))
  (segment (start 114.7445 101.4095) (end 114.7445 110.4265) (width 1) (layer B.Cu) (net 14))
  (segment (start 114.7445 110.4265) (end 114.8715 110.4265) (width 1) (layer B.Cu) (net 14) (tstamp 5CFF8647))
  (segment (start 132.0165 107.8865) (end 129.4765 110.4265) (width 1) (layer B.Cu) (net 14))
  (segment (start 132.0165 107.8865) (end 132.0165 101.9175) (width 1) (layer B.Cu) (net 14) (tstamp 5CFEDF73))
  (segment (start 129.4765 110.4265) (end 116.7765 110.4265) (width 1) (layer B.Cu) (net 14) (tstamp 5CFED415))
  (segment (start 116.7765 110.4265) (end 114.8715 110.4265) (width 1) (layer B.Cu) (net 14))
  (segment (start 114.2365 101.9175) (end 114.7445 101.4095) (width 1) (layer B.Cu) (net 14) (tstamp 5CFEDF6A))
  (segment (start 114.8715 110.4265) (end 114.2365 110.4265) (width 1) (layer B.Cu) (net 14) (tstamp 5CFF864A))
  (segment (start 114.2365 110.4265) (end 101.5365 110.4265) (width 1) (layer B.Cu) (net 14) (tstamp 5CFEDF68))
  (segment (start 91.3765 100.2665) (end 91.3765 77.4065) (width 1) (layer B.Cu) (net 14) (tstamp 5CFEDDB6))
  (segment (start 101.5365 110.4265) (end 91.3765 100.2665) (width 1) (layer B.Cu) (net 14) (tstamp 5CFEDDB2))
  (segment (start 93.9165 62.1665) (end 93.9165 74.8665) (width 1) (layer B.Cu) (net 14))
  (segment (start 93.9165 74.8665) (end 91.3765 77.4065) (width 1) (layer B.Cu) (net 14) (tstamp 5CFEDDA6))
  (segment (start 132.0165 101.9175) (end 132.5245 101.4095) (width 1) (layer B.Cu) (net 14) (tstamp 5CFED49A))
  (segment (start 109.7915 75.5015) (end 109.1565 74.8665) (width 1) (layer B.Cu) (net 16))
  (segment (start 114.2365 64.7065) (end 115.5065 64.7065) (width 1) (layer B.Cu) (net 16) (tstamp 5CFF88A6))
  (segment (start 109.1565 69.7865) (end 114.2365 64.7065) (width 1) (layer B.Cu) (net 16) (tstamp 5CFF88A5))
  (segment (start 109.1565 74.8665) (end 109.1565 69.7865) (width 1) (layer B.Cu) (net 16) (tstamp 5CFF88A4))
  (segment (start 114.2365 79.3115) (end 114.2365 80.7085) (width 1) (layer B.Cu) (net 16))
  (segment (start 114.2365 80.7085) (end 120.7135 87.1855) (width 1) (layer B.Cu) (net 16) (tstamp 5CFF88A1))
  (segment (start 111.0615 76.7715) (end 109.7915 75.5015) (width 1) (layer B.Cu) (net 16))
  (segment (start 118.0465 64.7065) (end 124.3965 58.3565) (width 1) (layer B.Cu) (net 16))
  (segment (start 118.0465 64.7065) (end 115.5065 64.7065) (width 1) (layer B.Cu) (net 16) (tstamp 5CFF8295))
  (segment (start 113.6015 79.3115) (end 114.2365 79.3115) (width 1) (layer B.Cu) (net 16) (tstamp 5CFF8197) (status 20))
  (segment (start 111.0615 76.7715) (end 113.6015 79.3115) (width 1) (layer B.Cu) (net 16) (tstamp 5CFF8196))
  (segment (start 120.5865 87.0585) (end 120.7135 87.1855) (width 0.25) (layer B.Cu) (net 16) (tstamp 5CFED03A))
  (segment (start 184.0865 69.7865) (end 184.0865 62.1665) (width 0.5) (layer B.Cu) (net 17))
  (segment (start 181.5465 62.1665) (end 181.5465 69.7865) (width 0.5) (layer B.Cu) (net 18))
  (segment (start 179.0065 69.7865) (end 179.0065 62.1665) (width 0.5) (layer B.Cu) (net 19))
  (segment (start 176.4665 62.1665) (end 176.4665 69.7865) (width 0.5) (layer B.Cu) (net 20))
  (segment (start 173.9265 69.7865) (end 173.9265 62.1665) (width 0.5) (layer B.Cu) (net 21))
  (segment (start 171.3865 62.1665) (end 171.3865 69.7865) (width 0.5) (layer B.Cu) (net 22))
  (segment (start 168.8465 69.7865) (end 168.8465 62.1665) (width 0.5) (layer B.Cu) (net 23))
  (segment (start 189.1665 69.7865) (end 189.1665 67.2465) (width 0.5) (layer B.Cu) (net 24))
  (segment (start 189.1665 67.2465) (end 191.7065 64.7065) (width 0.5) (layer B.Cu) (net 24) (tstamp 5CFED5BD))
  (segment (start 191.7065 64.7065) (end 192.9765 64.7065) (width 0.5) (layer B.Cu) (net 24) (tstamp 5CFED5BF))
  (segment (start 192.9765 64.7065) (end 194.2465 63.4365) (width 0.5) (layer B.Cu) (net 24) (tstamp 5CFED5C1))
  (segment (start 194.2465 63.4365) (end 194.2465 62.1665) (width 0.5) (layer B.Cu) (net 24) (tstamp 5CFED5C2))
  (segment (start 204.47 62.23) (end 204.47 69.723) (width 0.5) (layer B.Cu) (net 25) (status 400000))
  (segment (start 204.47 69.723) (end 203.1365 71.0565) (width 0.5) (layer B.Cu) (net 25) (tstamp 5D06A578))
  (segment (start 194.2465 75.565) (end 198.628 75.565) (width 0.5) (layer B.Cu) (net 25))
  (segment (start 198.628 75.565) (end 203.1365 71.0565) (width 0.5) (layer B.Cu) (net 25) (tstamp 5CFFC197))
  (via (at 194.2465 75.565) (size 1.5) (drill 0.4) (layers F.Cu B.Cu) (net 25))
  (segment (start 176.4665 85.0265) (end 176.4665 83.7565) (width 0.5) (layer B.Cu) (net 25))
  (segment (start 185.42 75.565) (end 194.2465 75.565) (width 0.5) (layer F.Cu) (net 25) (tstamp 5CFED5F6))
  (via (at 185.42 75.565) (size 1.5) (drill 0.4) (layers F.Cu B.Cu) (net 25))
  (segment (start 176.4665 83.7565) (end 185.42 75.565) (width 0.5) (layer B.Cu) (net 25) (tstamp 5CFED5F3))
  (segment (start 157.4165 101.5365) (end 157.4165 102.8065) (width 0.5) (layer B.Cu) (net 26))
  (segment (start 151.0665 102.8065) (end 151.0665 101.5365) (width 0.5) (layer B.Cu) (net 26) (tstamp 5CFED44E))
  (segment (start 152.3365 104.0765) (end 151.0665 102.8065) (width 0.5) (layer B.Cu) (net 26) (tstamp 5CFED44D))
  (segment (start 156.1465 104.0765) (end 152.3365 104.0765) (width 0.5) (layer B.Cu) (net 26) (tstamp 5CFED44C))
  (segment (start 157.4165 102.8065) (end 156.1465 104.0765) (width 0.5) (layer B.Cu) (net 26) (tstamp 5CFED44B))
  (segment (start 157.4165 95.1865) (end 157.4165 96.4565) (width 0.5) (layer B.Cu) (net 27))
  (segment (start 151.0665 96.4565) (end 151.0665 95.1865) (width 0.5) (layer B.Cu) (net 27) (tstamp 5CFED454))
  (segment (start 152.3365 97.7265) (end 151.0665 96.4565) (width 0.5) (layer B.Cu) (net 27) (tstamp 5CFED453))
  (segment (start 156.1465 97.7265) (end 152.3365 97.7265) (width 0.5) (layer B.Cu) (net 27) (tstamp 5CFED452))
  (segment (start 157.4165 96.4565) (end 156.1465 97.7265) (width 0.5) (layer B.Cu) (net 27) (tstamp 5CFED451))
  (segment (start 163.7665 92.6465) (end 165.0365 91.3765) (width 0.5) (layer B.Cu) (net 28))
  (segment (start 163.7665 97.7265) (end 163.7665 92.6465) (width 0.5) (layer B.Cu) (net 28))
  (segment (start 167.5765 101.5365) (end 163.7665 97.7265) (width 0.5) (layer B.Cu) (net 28) (tstamp 5CFED457))
  (segment (start 171.3865 86.9315) (end 171.3865 85.0265) (width 0.5) (layer B.Cu) (net 28) (tstamp 5CFED907))
  (segment (start 166.9415 91.3765) (end 171.3865 86.9315) (width 0.5) (layer B.Cu) (net 28) (tstamp 5CFED905))
  (segment (start 165.0365 91.3765) (end 166.9415 91.3765) (width 0.5) (layer B.Cu) (net 28) (tstamp 5CFED904))
  (segment (start 167.5765 95.1865) (end 167.5765 93.2815) (width 0.5) (layer B.Cu) (net 29))
  (segment (start 167.5765 93.2815) (end 173.9265 86.9315) (width 0.5) (layer B.Cu) (net 29) (tstamp 5CFF8F4F))
  (segment (start 173.9265 85.0265) (end 173.9265 86.9315) (width 0.5) (layer B.Cu) (net 29))
  (segment (start 166.3065 69.7865) (end 166.3065 77.4065) (width 0.5) (layer B.Cu) (net 30))
  (segment (start 153.6065 83.7565) (end 153.6065 82.4865) (width 0.5) (layer B.Cu) (net 30) (tstamp 5CFED916))
  (segment (start 154.8765 85.0265) (end 153.6065 83.7565) (width 0.5) (layer B.Cu) (net 30) (tstamp 5CFED915))
  (segment (start 158.6865 85.0265) (end 154.8765 85.0265) (width 0.5) (layer B.Cu) (net 30) (tstamp 5CFED913))
  (segment (start 166.3065 77.4065) (end 158.6865 85.0265) (width 0.5) (layer B.Cu) (net 30) (tstamp 5CFED911))
  (segment (start 163.7665 69.7865) (end 163.7665 76.1365) (width 0.5) (layer B.Cu) (net 31))
  (segment (start 163.7665 76.1365) (end 157.4165 82.4865) (width 0.5) (layer B.Cu) (net 31) (tstamp 5CFED919))
  (segment (start 179.0065 83.7565) (end 179.0065 85.0265) (width 0.5) (layer B.Cu) (net 45) (tstamp 5CFFC172))
  (segment (start 179.0065 83.7565) (end 179.0065 85.0265) (width 0.5) (layer B.Cu) (net 45) (tstamp 5CFED618))
  (segment (start 195.58 80.645) (end 207.01 80.645) (width 0.5) (layer B.Cu) (net 46))
  (segment (start 189.1665 85.0265) (end 189.1665 80.7085) (width 0.5) (layer B.Cu) (net 46))
  (segment (start 189.1665 80.7085) (end 189.23 80.645) (width 0.5) (layer B.Cu) (net 46) (tstamp 5CFFC142))
  (via (at 189.23 80.645) (size 1.5) (drill 0.4) (layers F.Cu B.Cu) (net 46))
  (segment (start 189.23 80.645) (end 195.58 80.645) (width 0.5) (layer F.Cu) (net 46) (tstamp 5CFED624))
  (via (at 195.58 80.645) (size 1.5) (drill 0.4) (layers F.Cu B.Cu) (net 46))

  (zone (net 5) (net_name GND) (layer B.Cu) (tstamp 5CFED9E5) (hatch edge 0.508)
    (connect_pads (clearance 0.508))
    (min_thickness 0.254)
    (fill (arc_segments 16) (thermal_gap 0.508) (thermal_bridge_width 0.508))
    (polygon
      (pts
        (xy 215.2015 126.9365) (xy 73.5965 126.9365) (xy 73.5965 84.3915) (xy 85.6615 84.3915) (xy 85.725 102.235)
        (xy 99.695 116.205) (xy 130.81 116.205) (xy 144.78 102.235) (xy 144.7165 83.1215) (xy 151.7015 83.1215)
        (xy 151.7015 49.4665) (xy 215.2015 49.4665)
      )
    )
  )
  (zone (net 14) (net_name "Net-(K1-PadP1)") (layer B.Cu) (tstamp 5CFF8931) (hatch edge 0.508)
    (connect_pads (clearance 0.508))
    (min_thickness 0.254)
    (fill (arc_segments 16) (thermal_gap 0.508) (thermal_bridge_width 0.508))
    (polygon
      (pts
        (xy 93.2815 74.8665) (xy 93.2815 59.6265) (xy 97.0915 59.6265) (xy 102.1715 64.7065) (xy 105.3465 64.7065)
        (xy 105.3465 83.1215) (xy 103.4415 85.0265) (xy 103.505 110.49) (xy 100.965 110.49) (xy 90.7415 100.2665)
        (xy 90.7415 77.4065) (xy 93.9165 74.8665)
      )
    )
  )
  (zone (net 2) (net_name "Net-(C1-Pad2)") (layer B.Cu) (tstamp 5CFF8A72) (hatch edge 0.508)
    (connect_pads (clearance 0.508))
    (min_thickness 0.254)
    (fill (arc_segments 16) (thermal_gap 0.508) (thermal_bridge_width 0.508))
    (polygon
      (pts
        (xy 146.05 49.53) (xy 146.05 59.69) (xy 139.065 52.705) (xy 119.38 52.705) (xy 119.3165 56.4515)
        (xy 114.8715 60.8965) (xy 104.0765 60.8965) (xy 98.9965 55.8165) (xy 90.7415 55.8165) (xy 89.4715 57.0865)
        (xy 89.4715 69.7865) (xy 81.8515 77.4065) (xy 81.8515 79.3115) (xy 73.5965 79.3115) (xy 73.5965 49.4665)
        (xy 104.0765 49.4665)
      )
    )
  )
)
