EESchema Schematic File Version 4
EELAYER 30 0
EELAYER END
$Descr A4 11693 8268
encoding utf-8
Sheet 1 1
Title ""
Date ""
Rev ""
Comp ""
Comment1 ""
Comment2 ""
Comment3 ""
Comment4 ""
$EndDescr
$Comp
L my-misc-modules:DS3231 U2
U 1 1 5CFA28C5
P 3600 4000
F 0 "U2" H 3200 3700 60  0000 C CNN
F 1 "DS3231" H 3650 4100 60  0000 C CNN
F 2 "myModules:ds3231-module-horz" H 4100 3400 60  0001 C CNN
F 3 "" H 4100 3400 60  0000 C CNN
	1    3600 4000
	-1   0    0    1   
$EndComp
$Comp
L power:GND #PWR01
U 1 1 5CFA29D6
P 4600 4250
F 0 "#PWR01" H 4600 4000 50  0001 C CNN
F 1 "GND" H 4600 4100 50  0000 C CNN
F 2 "" H 4600 4250 50  0000 C CNN
F 3 "" H 4600 4250 50  0000 C CNN
	1    4600 4250
	1    0    0    -1  
$EndComp
$Comp
L power:+5V #PWR02
U 1 1 5CFA2A11
P 8900 5000
F 0 "#PWR02" H 8900 4850 50  0001 C CNN
F 1 "+5V" H 8900 5140 50  0000 C CNN
F 2 "" H 8900 5000 50  0000 C CNN
F 3 "" H 8900 5000 50  0000 C CNN
	1    8900 5000
	1    0    0    -1  
$EndComp
$Comp
L sprinkle-timer-rescue:C C4
U 1 1 5CFA2A39
P 8900 5500
F 0 "C4" H 8925 5600 50  0000 L CNN
F 1 "100nF" H 8925 5400 50  0000 L CNN
F 2 "Capacitors_ThroughHole:C_Rect_L7_W2_P5" H 8938 5350 50  0001 C CNN
F 3 "" H 8900 5500 50  0000 C CNN
	1    8900 5500
	1    0    0    -1  
$EndComp
$Comp
L power:GND #PWR03
U 1 1 5CFA2A73
P 8900 5750
F 0 "#PWR03" H 8900 5500 50  0001 C CNN
F 1 "GND" H 8900 5600 50  0000 C CNN
F 2 "" H 8900 5750 50  0000 C CNN
F 3 "" H 8900 5750 50  0000 C CNN
	1    8900 5750
	1    0    0    -1  
$EndComp
$Comp
L power:+5V #PWR04
U 1 1 5CFA361E
P 4700 3850
F 0 "#PWR04" H 4700 3700 50  0001 C CNN
F 1 "+5V" H 4700 3990 50  0000 C CNN
F 2 "" H 4700 3850 50  0000 C CNN
F 3 "" H 4700 3850 50  0000 C CNN
	1    4700 3850
	1    0    0    -1  
$EndComp
$Comp
L my-switches:KEYBOARD-MATRIX-12 K3
U 1 1 5CFA3F7B
P 7050 1300
F 0 "K3" H 7350 750 60  0000 C CNN
F 1 "KEYBOARD-MATRIX-12" H 7450 1650 60  0000 C CNN
F 2 "Pin_Headers:Pin_Header_Straight_1x07" H 7050 1300 60  0001 C CNN
F 3 "" H 7050 1300 60  0000 C CNN
	1    7050 1300
	1    0    0    -1  
$EndComp
$Comp
L sprinkle-timer-rescue:Led_Small D3
U 1 1 5CFA4242
P 5900 5650
F 0 "D3" H 5950 5800 50  0000 L CNN
F 1 "GREEN" H 5650 5800 50  0000 L CNN
F 2 "LEDs:LED-3MM" V 5900 5650 50  0001 C CNN
F 3 "" V 5900 5650 50  0000 C CNN
	1    5900 5650
	0    -1   -1   0   
$EndComp
$Comp
L sprinkle-timer-rescue:Led_Small D4
U 1 1 5CFA42AF
P 6050 5650
F 0 "D4" H 6100 5550 50  0000 L CNN
F 1 "RED" H 5900 5550 50  0000 L CNN
F 2 "LEDs:LED-3MM" V 6050 5650 50  0001 C CNN
F 3 "" V 6050 5650 50  0000 C CNN
	1    6050 5650
	0    -1   -1   0   
$EndComp
$Comp
L sprinkle-timer-rescue:R R6
U 1 1 5CFA4313
P 5900 5300
F 0 "R6" V 5800 5300 50  0000 C CNN
F 1 "2.2K" V 5900 5300 50  0000 C CNN
F 2 "Resistors_ThroughHole:Resistor_Horizontal_RM10mm" V 5830 5300 50  0001 C CNN
F 3 "" H 5900 5300 50  0000 C CNN
	1    5900 5300
	1    0    0    -1  
$EndComp
$Comp
L sprinkle-timer-rescue:R R7
U 1 1 5CFA44B7
P 6050 5300
F 0 "R7" V 6150 5300 50  0000 C CNN
F 1 "2.2K" V 6050 5300 50  0000 C CNN
F 2 "Resistors_ThroughHole:Resistor_Horizontal_RM10mm" V 5980 5300 50  0001 C CNN
F 3 "" H 6050 5300 50  0000 C CNN
	1    6050 5300
	1    0    0    -1  
$EndComp
$Comp
L power:GND #PWR05
U 1 1 5CFA4527
P 6050 5950
F 0 "#PWR05" H 6050 5700 50  0001 C CNN
F 1 "GND" H 6050 5800 50  0000 C CNN
F 2 "" H 6050 5950 50  0000 C CNN
F 3 "" H 6050 5950 50  0000 C CNN
	1    6050 5950
	1    0    0    -1  
$EndComp
$Comp
L my_relays:RELAY_SPDT K1
U 1 1 5CFA4A3C
P 3450 1650
F 0 "K1" H 3250 1750 50  0000 C CNN
F 1 "SRD-05VDC-SL-C" H 3450 1050 50  0000 C CNN
F 2 "myRelays:Relay_SPDT_Finder-36.11" H 3450 1650 50  0001 C CNN
F 3 "" H 3450 1650 50  0000 C CNN
	1    3450 1650
	-1   0    0    1   
$EndComp
$Comp
L my_relays:RELAY_SPDT K2
U 1 1 5CFA4AE5
P 3450 2750
F 0 "K2" H 3250 2850 50  0000 C CNN
F 1 "SRD-05VDC-SL-C" H 3450 2150 50  0000 C CNN
F 2 "myRelays:Relay_SPDT_Finder-36.11" H 3450 2750 50  0001 C CNN
F 3 "" H 3450 2750 50  0000 C CNN
	1    3450 2750
	-1   0    0    1   
$EndComp
$Comp
L sprinkle-timer-rescue:PN2222A Q2
U 1 1 5CFA4B7A
P 4650 2900
F 0 "Q2" H 4850 2975 50  0000 L CNN
F 1 "PN2222A" H 4850 2900 50  0000 L CNN
F 2 "TO_SOT_Packages_THT:TO-92_Inline_Wide" H 4850 2825 50  0001 L CIN
F 3 "" H 4650 2900 50  0000 L CNN
	1    4650 2900
	-1   0    0    -1  
$EndComp
$Comp
L sprinkle-timer-rescue:R R4
U 1 1 5CFA4C39
P 5100 2900
F 0 "R4" V 5180 2900 50  0000 C CNN
F 1 "1K" V 5100 2900 50  0000 C CNN
F 2 "Resistors_ThroughHole:Resistor_Horizontal_RM10mm" V 5030 2900 50  0001 C CNN
F 3 "" H 5100 2900 50  0000 C CNN
	1    5100 2900
	0    1    1    0   
$EndComp
$Comp
L power:GND #PWR06
U 1 1 5CFA4CEC
P 4550 3200
F 0 "#PWR06" H 4550 2950 50  0001 C CNN
F 1 "GND" H 4550 3050 50  0000 C CNN
F 2 "" H 4550 3200 50  0000 C CNN
F 3 "" H 4550 3200 50  0000 C CNN
	1    4550 3200
	1    0    0    -1  
$EndComp
$Comp
L sprinkle-timer-rescue:PN2222A Q1
U 1 1 5CFA4E5D
P 4650 1800
F 0 "Q1" H 4850 1875 50  0000 L CNN
F 1 "PN2222A" H 4850 1800 50  0000 L CNN
F 2 "TO_SOT_Packages_THT:TO-92_Inline_Wide" H 4850 1725 50  0001 L CIN
F 3 "" H 4650 1800 50  0000 L CNN
	1    4650 1800
	-1   0    0    -1  
$EndComp
$Comp
L sprinkle-timer-rescue:R R3
U 1 1 5CFA4E63
P 5100 1800
F 0 "R3" V 5180 1800 50  0000 C CNN
F 1 "1K" V 5100 1800 50  0000 C CNN
F 2 "Resistors_ThroughHole:Resistor_Horizontal_RM10mm" V 5030 1800 50  0001 C CNN
F 3 "" H 5100 1800 50  0000 C CNN
	1    5100 1800
	0    1    1    0   
$EndComp
$Comp
L power:GND #PWR07
U 1 1 5CFA4E69
P 4550 2100
F 0 "#PWR07" H 4550 1850 50  0001 C CNN
F 1 "GND" H 4550 1950 50  0000 C CNN
F 2 "" H 4550 2100 50  0000 C CNN
F 3 "" H 4550 2100 50  0000 C CNN
	1    4550 2100
	1    0    0    -1  
$EndComp
$Comp
L power:+5V #PWR08
U 1 1 5CFA5185
P 4050 1100
F 0 "#PWR08" H 4050 950 50  0001 C CNN
F 1 "+5V" H 4050 1240 50  0000 C CNN
F 2 "" H 4050 1100 50  0000 C CNN
F 3 "" H 4050 1100 50  0000 C CNN
	1    4050 1100
	1    0    0    -1  
$EndComp
$Comp
L sprinkle-timer-rescue:D D1
U 1 1 5CFA52B1
P 4300 1300
F 0 "D1" H 4300 1400 50  0000 C CNN
F 1 "1N4148" H 4300 1150 50  0000 C CNN
F 2 "Diodes_ThroughHole:Diode_DO-35_SOD27_Horizontal_RM10" H 4300 1300 50  0001 C CNN
F 3 "" H 4300 1300 50  0000 C CNN
	1    4300 1300
	1    0    0    -1  
$EndComp
$Comp
L sprinkle-timer-rescue:D D2
U 1 1 5CFA53F9
P 4300 2400
F 0 "D2" H 4300 2500 50  0000 C CNN
F 1 "1N4148" H 4300 2250 50  0000 C CNN
F 2 "Diodes_ThroughHole:Diode_DO-35_SOD27_Horizontal_RM10" H 4300 2400 50  0001 C CNN
F 3 "" H 4300 2400 50  0000 C CNN
	1    4300 2400
	1    0    0    -1  
$EndComp
$Comp
L my_psu:IRM-XX-XX U1
U 1 1 5CFA5655
P 4000 5050
F 0 "U1" H 4000 5300 60  0000 C CNN
F 1 "IRM-05-5" H 3750 4800 60  0000 L CNN
F 2 "myPowerSupplies:MEANWELL_IRM-05-XX" H 4000 5050 60  0001 C CNN
F 3 "" H 4000 5050 60  0000 C CNN
	1    4000 5050
	1    0    0    -1  
$EndComp
$Comp
L sprinkle-timer-rescue:CONN_01X02 P2
U 1 1 5CFA5729
P 2050 5050
F 0 "P2" H 2050 5200 50  0000 C CNN
F 1 "230V" V 2150 5050 50  0000 C CNN
F 2 "Connect:bornier2" H 2050 5050 50  0001 C CNN
F 3 "" H 2050 5050 50  0000 C CNN
	1    2050 5050
	-1   0    0    1   
$EndComp
$Comp
L power:+5V #PWR09
U 1 1 5CFA58A9
P 4750 4850
F 0 "#PWR09" H 4750 4700 50  0001 C CNN
F 1 "+5V" H 4750 4990 50  0000 C CNN
F 2 "" H 4750 4850 50  0000 C CNN
F 3 "" H 4750 4850 50  0000 C CNN
	1    4750 4850
	1    0    0    -1  
$EndComp
$Comp
L power:GND #PWR010
U 1 1 5CFA59AB
P 4750 5250
F 0 "#PWR010" H 4750 5000 50  0001 C CNN
F 1 "GND" H 4750 5100 50  0000 C CNN
F 2 "" H 4750 5250 50  0000 C CNN
F 3 "" H 4750 5250 50  0000 C CNN
	1    4750 5250
	1    0    0    -1  
$EndComp
$Comp
L sprinkle-timer-rescue:CONN_01X03 P1
U 1 1 5CFA639C
P 1950 1250
F 0 "P1" H 1950 1450 50  0000 C CNN
F 1 "VALVE" V 2050 1250 50  0000 C CNN
F 2 "Connect:bornier3" H 1950 1250 50  0001 C CNN
F 3 "" H 1950 1250 50  0000 C CNN
	1    1950 1250
	-1   0    0    1   
$EndComp
$Comp
L sprinkle-timer-rescue:R R2
U 1 1 5CFA727B
P 2500 1850
F 0 "R2" V 2580 1850 50  0000 C CNN
F 1 "100" V 2500 1850 50  0000 C CNN
F 2 "Resistors_ThroughHole:Resistor_Horizontal_RM10mm" V 2430 1850 50  0001 C CNN
F 3 "" H 2500 1850 50  0000 C CNN
	1    2500 1850
	-1   0    0    1   
$EndComp
$Comp
L sprinkle-timer-rescue:C C2
U 1 1 5CFA7336
P 2500 2250
F 0 "C2" H 2400 2150 50  0000 L CNN
F 1 "100nF 250V X2" V 2650 1850 50  0000 L CNN
F 2 "Capacitors_ThroughHole:C_Rect_L18_W6_P15" H 2538 2100 50  0001 C CNN
F 3 "" H 2500 2250 50  0000 C CNN
	1    2500 2250
	1    0    0    -1  
$EndComp
$Comp
L sprinkle-timer-rescue:R R1
U 1 1 5CFA74CF
P 2300 1850
F 0 "R1" V 2380 1850 50  0000 C CNN
F 1 "100" V 2300 1850 50  0000 C CNN
F 2 "Resistors_ThroughHole:Resistor_Horizontal_RM10mm" V 2230 1850 50  0001 C CNN
F 3 "" H 2300 1850 50  0000 C CNN
	1    2300 1850
	-1   0    0    1   
$EndComp
$Comp
L sprinkle-timer-rescue:C C1
U 1 1 5CFA752E
P 2300 2250
F 0 "C1" H 2325 2350 50  0000 L CNN
F 1 "100nF 250V X2" V 2150 1850 50  0000 L CNN
F 2 "Capacitors_ThroughHole:C_Rect_L18_W6_P15" H 2338 2100 50  0001 C CNN
F 3 "" H 2300 2250 50  0000 C CNN
	1    2300 2250
	1    0    0    -1  
$EndComp
$Comp
L my_mcu:arduino_nano U3
U 1 1 5CFA94DC
P 7800 4450
F 0 "U3" H 8100 3400 70  0000 C CNN
F 1 "arduino_nano" H 8100 3650 70  0000 C CNN
F 2 "myMicroControllers:Arduino-nano" H 8100 4400 60  0001 C CNN
F 3 "" H 7800 4450 60  0000 C CNN
	1    7800 4450
	-1   0    0    -1  
$EndComp
$Comp
L my-displays:DISPLAY-2004-I2C DS1
U 1 1 5CFAB64B
P 7400 2350
F 0 "DS1" H 6650 2750 50  0000 C CNN
F 1 "DISPLAY-2004-I2C" H 7850 2750 50  0000 C CNN
F 2 "Pin_Headers:Pin_Header_Straight_1x04" H 7400 2300 50  0000 C CIN
F 3 "" H 7400 2350 50  0000 C CNN
	1    7400 2350
	1    0    0    -1  
$EndComp
$Comp
L power:+5V #PWR011
U 1 1 5CFABB46
P 6300 2100
F 0 "#PWR011" H 6300 1950 50  0001 C CNN
F 1 "+5V" H 6300 2240 50  0000 C CNN
F 2 "" H 6300 2100 50  0000 C CNN
F 3 "" H 6300 2100 50  0000 C CNN
	1    6300 2100
	1    0    0    -1  
$EndComp
$Comp
L sprinkle-timer-rescue:C C3
U 1 1 5CFABDA9
P 6300 2400
F 0 "C3" H 6325 2500 50  0000 L CNN
F 1 "100nF" H 6200 2300 50  0000 L CNN
F 2 "Capacitors_ThroughHole:C_Rect_L7_W2_P5" H 6338 2250 50  0001 C CNN
F 3 "" H 6300 2400 50  0000 C CNN
	1    6300 2400
	1    0    0    -1  
$EndComp
$Comp
L power:GND #PWR012
U 1 1 5CFABFB1
P 6300 2700
F 0 "#PWR012" H 6300 2450 50  0001 C CNN
F 1 "GND" H 6300 2550 50  0000 C CNN
F 2 "" H 6300 2700 50  0000 C CNN
F 3 "" H 6300 2700 50  0000 C CNN
	1    6300 2700
	1    0    0    -1  
$EndComp
$Comp
L sprinkle-timer-rescue:CONN_01X03 P3
U 1 1 5CFCB007
P 9600 6000
F 0 "P3" H 9600 6200 50  0000 C CNN
F 1 "FLOW-SENSOR" V 9700 6000 50  0000 C CNN
F 2 "Pin_Headers:Pin_Header_Straight_1x03" H 9600 6000 50  0001 C CNN
F 3 "" H 9600 6000 50  0000 C CNN
	1    9600 6000
	1    0    0    -1  
$EndComp
$Comp
L power:+5V #PWR013
U 1 1 5CFCB0AE
P 9300 5800
F 0 "#PWR013" H 9300 5650 50  0001 C CNN
F 1 "+5V" H 9300 5940 50  0000 C CNN
F 2 "" H 9300 5800 50  0000 C CNN
F 3 "" H 9300 5800 50  0000 C CNN
	1    9300 5800
	1    0    0    -1  
$EndComp
$Comp
L power:GND #PWR014
U 1 1 5CFCB107
P 9300 6200
F 0 "#PWR014" H 9300 5950 50  0001 C CNN
F 1 "GND" H 9300 6050 50  0000 C CNN
F 2 "" H 9300 6200 50  0000 C CNN
F 3 "" H 9300 6200 50  0000 C CNN
	1    9300 6200
	1    0    0    -1  
$EndComp
Wire Wire Line
	4600 4250 4600 3850
Wire Wire Line
	4600 3850 4250 3850
Wire Wire Line
	8900 5000 8900 5250
Wire Wire Line
	8900 5250 8900 5350
Wire Wire Line
	8900 5250 8500 5250
Wire Wire Line
	8900 5750 8900 5650
Connection ~ 8900 5250
Wire Wire Line
	4700 3850 4700 3950
Wire Wire Line
	4700 3950 4250 3950
Wire Wire Line
	5900 5750 5900 5850
Wire Wire Line
	5900 5850 6050 5850
Wire Wire Line
	6050 5850 6300 5850
Wire Wire Line
	6050 5750 6050 5850
Wire Wire Line
	6050 5850 6050 5950
Connection ~ 6050 5850
Wire Wire Line
	5900 5550 5900 5450
Wire Wire Line
	6050 5450 6050 5550
Wire Wire Line
	4250 4050 5100 4050
Wire Wire Line
	4250 4150 5150 4150
Wire Wire Line
	4550 3200 4550 3100
Wire Wire Line
	4850 2900 4950 2900
Wire Wire Line
	4550 2100 4550 2000
Wire Wire Line
	4850 1800 4950 1800
Wire Wire Line
	4550 1300 4550 1400
Wire Wire Line
	4550 1400 4550 1600
Wire Wire Line
	4550 1400 3850 1400
Wire Wire Line
	3850 2500 4550 2500
Wire Wire Line
	4550 2400 4550 2500
Wire Wire Line
	4550 2500 4550 2700
Wire Wire Line
	5250 2900 5350 2900
Wire Wire Line
	5350 2900 5350 3400
Wire Wire Line
	5400 3350 5400 1800
Wire Wire Line
	5400 1800 5250 1800
Wire Wire Line
	4050 1100 4050 1300
Wire Wire Line
	4050 1300 4050 2400
Wire Wire Line
	3850 2400 4050 2400
Wire Wire Line
	4050 2400 4150 2400
Wire Wire Line
	3850 1300 4050 1300
Wire Wire Line
	4050 1300 4150 1300
Connection ~ 4050 1300
Wire Wire Line
	4450 1300 4550 1300
Connection ~ 4550 1400
Connection ~ 4050 2400
Wire Wire Line
	4450 2400 4550 2400
Connection ~ 4550 2500
Wire Wire Line
	2250 5000 2900 5000
Wire Wire Line
	2750 5100 2250 5100
Wire Wire Line
	4750 4850 4750 4950
Wire Wire Line
	4750 4950 4650 4950
Wire Wire Line
	4750 5250 4750 5150
Wire Wire Line
	4750 5150 4650 5150
Wire Wire Line
	3850 1600 3950 1600
Wire Wire Line
	3950 1600 3950 2700
Wire Wire Line
	3950 2700 3950 3250
Wire Wire Line
	3950 2700 3850 2700
Wire Wire Line
	2750 1250 2750 2500
Wire Wire Line
	2750 2500 2750 5100
Connection ~ 3950 2700
Connection ~ 2750 5100
Wire Wire Line
	2150 1250 2750 1250
Wire Wire Line
	3950 3250 2900 3250
Wire Wire Line
	2900 3250 2900 5000
Connection ~ 2900 5000
Wire Wire Line
	3050 1500 2950 1500
Wire Wire Line
	2950 1500 2950 1150
Wire Wire Line
	2950 1150 2500 1150
Wire Wire Line
	2500 1150 2150 1150
Wire Wire Line
	2150 1350 2300 1350
Wire Wire Line
	2300 1350 2900 1350
Wire Wire Line
	2900 1350 2900 2600
Wire Wire Line
	2900 2600 3050 2600
Wire Wire Line
	2500 2000 2500 2100
Wire Wire Line
	2300 2100 2300 2000
Wire Wire Line
	2300 2400 2300 2500
Wire Wire Line
	2300 2500 2500 2500
Wire Wire Line
	2500 2500 2750 2500
Wire Wire Line
	2500 2500 2500 2400
Connection ~ 2750 2500
Connection ~ 2500 2500
Wire Wire Line
	2300 1700 2300 1350
Connection ~ 2300 1350
Wire Wire Line
	2500 1700 2500 1150
Connection ~ 2500 1150
Wire Wire Line
	5500 4800 5500 1100
Wire Wire Line
	5500 1100 6850 1100
Wire Wire Line
	6850 1200 5550 1200
Wire Wire Line
	5550 1200 5550 4650
Wire Wire Line
	5600 4500 5600 1300
Wire Wire Line
	5600 1300 6850 1300
Wire Wire Line
	6850 1400 5650 1400
Wire Wire Line
	5650 1400 5650 4350
Wire Wire Line
	5700 4200 5700 1500
Wire Wire Line
	5700 1500 6850 1500
Wire Wire Line
	6850 1600 5750 1600
Wire Wire Line
	5750 1600 5750 4050
Wire Wire Line
	5800 3900 5800 1700
Wire Wire Line
	5800 1700 6850 1700
Wire Wire Line
	6050 5150 6050 3600
Wire Wire Line
	6050 3600 6450 3600
Wire Wire Line
	5900 5150 5900 3750
Wire Wire Line
	5900 3750 6450 3750
Wire Wire Line
	8500 4650 8600 4650
Wire Wire Line
	8600 4650 8600 3200
Wire Wire Line
	8600 3200 6850 3200
Wire Wire Line
	6850 3200 5100 3200
Wire Wire Line
	5100 3200 5100 4050
Wire Wire Line
	5150 4150 5150 3250
Wire Wire Line
	5150 3250 6950 3250
Wire Wire Line
	6950 3250 8650 3250
Wire Wire Line
	8650 3250 8650 4800
Wire Wire Line
	8650 4800 8500 4800
Wire Wire Line
	6300 5850 6300 5250
Wire Wire Line
	6300 5250 6450 5250
Wire Wire Line
	6950 2850 6950 3250
Connection ~ 6950 3250
Wire Wire Line
	6850 3200 6850 2850
Connection ~ 6850 3200
Wire Wire Line
	9300 6200 9300 6100
Wire Wire Line
	9300 6100 9400 6100
Wire Wire Line
	9400 5900 9300 5900
Wire Wire Line
	9300 5900 9300 5800
Wire Wire Line
	8500 4350 9400 4350
Wire Wire Line
	5800 3900 6450 3900
Wire Wire Line
	5750 4050 6450 4050
Wire Wire Line
	5700 4200 6450 4200
Wire Wire Line
	5650 4350 6450 4350
Wire Wire Line
	5600 4500 6450 4500
Wire Wire Line
	5550 4650 6450 4650
Wire Wire Line
	5500 4800 6450 4800
Wire Wire Line
	9400 6000 6350 6000
Wire Wire Line
	6350 6000 6350 5100
Wire Wire Line
	6350 5100 6450 5100
Wire Wire Line
	5400 3350 8700 3350
Wire Wire Line
	8700 3350 8700 4050
Wire Wire Line
	8700 4050 8500 4050
Wire Wire Line
	8500 4200 8750 4200
Wire Wire Line
	8750 4200 8750 3400
Wire Wire Line
	8750 3400 5350 3400
Wire Wire Line
	6300 2100 6300 2200
Wire Wire Line
	6300 2200 6300 2250
Wire Wire Line
	6300 2200 6400 2200
Connection ~ 6300 2200
Wire Wire Line
	6300 2550 6300 2600
Wire Wire Line
	6300 2600 6300 2700
Wire Wire Line
	6300 2600 6400 2600
Connection ~ 6300 2600
$Comp
L sprinkle-timer-rescue:CONN_01X03 P4
U 1 1 5D04E042
P 9600 4350
F 0 "P4" H 9600 4550 50  0000 C CNN
F 1 "HUMIDITY-SENSOR" V 9700 4350 50  0000 C CNN
F 2 "Pin_Headers:Pin_Header_Straight_1x03" H 9600 4350 50  0001 C CNN
F 3 "" H 9600 4350 50  0000 C CNN
	1    9600 4350
	1    0    0    -1  
$EndComp
$Comp
L power:+5V #PWR015
U 1 1 5D04E21B
P 9300 4150
F 0 "#PWR015" H 9300 4000 50  0001 C CNN
F 1 "+5V" H 9300 4290 50  0000 C CNN
F 2 "" H 9300 4150 50  0000 C CNN
F 3 "" H 9300 4150 50  0000 C CNN
	1    9300 4150
	1    0    0    -1  
$EndComp
$Comp
L power:GND #PWR016
U 1 1 5D04E277
P 9300 4550
F 0 "#PWR016" H 9300 4300 50  0001 C CNN
F 1 "GND" H 9300 4400 50  0000 C CNN
F 2 "" H 9300 4550 50  0000 C CNN
F 3 "" H 9300 4550 50  0000 C CNN
	1    9300 4550
	1    0    0    -1  
$EndComp
Wire Wire Line
	9400 4450 9300 4450
Wire Wire Line
	9300 4450 9300 4550
Wire Wire Line
	9400 4250 9300 4250
Wire Wire Line
	9300 4250 9300 4150
Wire Wire Line
	2900 5000 3350 5000
Wire Wire Line
	2750 5100 3350 5100
$EndSCHEMATC
